{
    "m_SGVersion": 2,
    "m_Type": "UnityEditor.ShaderGraph.GraphData",
    "m_ObjectId": "fcac913d4f70448ea921177bda62c886",
    "m_Properties": [
        {
            "m_Id": "3f63a3e9e7d14721b5c7a45a678d957c"
        },
        {
            "m_Id": "36ce2576a5f94344ac5ea50251e82992"
        },
        {
            "m_Id": "8ac28e7d934a4e26a76f4eaa73fb4559"
        },
        {
            "m_Id": "a97a1718599d458691626ed9d9dda637"
        },
        {
            "m_Id": "25d7e2d431e34ae2af9bd43dce30ab20"
        },
        {
            "m_Id": "d1223ea7bfec44788bbc75b273984137"
        },
        {
            "m_Id": "1a0bc50cbfd6432c8514f968315547ca"
        }
    ],
    "m_Keywords": [],
    "m_Nodes": [
        {
            "m_Id": "7be54f74530a41d1b2597047c460d742"
        },
        {
            "m_Id": "249db29018924b58b69f4f6063f38081"
        },
        {
            "m_Id": "f144401560d1404da506da8f7f9f8709"
        },
        {
            "m_Id": "88137b6abf6a46858fcfa6a1808d4473"
        },
        {
            "m_Id": "51b257ef0a54429e9fa90b3cbbf3d6a3"
        },
        {
            "m_Id": "92a278fc2c794eaeb5c9ecbe4b56fc55"
        },
        {
            "m_Id": "5e544a5576154b34b891e075006cfb30"
        },
        {
            "m_Id": "3bd0f44f74d545d7b339f9e94e37aa3a"
        },
        {
            "m_Id": "efa68c3706bb41e3af8dc44caaf81587"
        },
        {
            "m_Id": "0900b205a7c3491eb0b7ba06826dff4f"
        },
        {
            "m_Id": "8045eab5d4ba4261b6d37a2a333e36b6"
        },
        {
            "m_Id": "090f00b140524fbfb14748c82ac042ba"
        },
        {
            "m_Id": "a2d749a8a3644642985662c380dca5c5"
        },
        {
            "m_Id": "6ca12267c3e5476286cfa4f2787a9285"
        },
        {
            "m_Id": "bde14e6776c747d9a9e26779ec988f41"
        },
        {
            "m_Id": "db0985251adf48e480369ecd328b9513"
        },
        {
            "m_Id": "86f21547474b4db2a94415c86b68a2fc"
        },
        {
            "m_Id": "e48a4daa26084be69e5df1052b13866c"
        },
        {
            "m_Id": "60094c3e6eda453ab80d052b15c05766"
        },
        {
            "m_Id": "c2f1baad4d3147b4bd10f8331112644a"
        },
        {
            "m_Id": "1861d8df70b24b15b14de00b7e7522ae"
        },
        {
            "m_Id": "aba2ba5df4854107afb7dc495b411fcb"
        },
        {
            "m_Id": "554835de155e4443b94542f44657bbdb"
        },
        {
            "m_Id": "8f82bf7a63a14b968e9c7b8bf8057a78"
        },
        {
            "m_Id": "75dd52b457b341239d7e7492a31e33b4"
        },
        {
            "m_Id": "5c9190c46a6148b1ac82945f2a8dc875"
        },
        {
            "m_Id": "7f0877e6f3604fea97da99cacfe8d304"
        },
        {
            "m_Id": "e23f94003ea140e687f183db07fff2cf"
        },
        {
            "m_Id": "da81e991913b4261a97aca6cf4cf081a"
        },
        {
            "m_Id": "75282b20252b44fa9e70b9be2fab53c3"
        },
        {
            "m_Id": "3d79e94e37524954b7bf5145fe4bd387"
        },
        {
            "m_Id": "5afb912d81ca4bc59c44f2532db0cb4d"
        },
        {
            "m_Id": "727b7f445cbe4154b1a22ed213fe2b70"
        },
        {
            "m_Id": "5618bb17a0424bbebd517184ab727c19"
        },
        {
            "m_Id": "561583b439a94394880430a10e9032d2"
        },
        {
            "m_Id": "6d51b1d258994bc6885977e979bd3938"
        },
        {
            "m_Id": "e333950441be43a49f2b1c867cfbfd9a"
        }
    ],
    "m_GroupDatas": [],
    "m_StickyNoteDatas": [],
    "m_Edges": [
        {
            "m_OutputSlot": {
                "m_Node": {
                    "m_Id": "090f00b140524fbfb14748c82ac042ba"
                },
                "m_SlotId": 0
            },
            "m_InputSlot": {
                "m_Node": {
                    "m_Id": "88137b6abf6a46858fcfa6a1808d4473"
                },
                "m_SlotId": 0
            }
        },
        {
            "m_OutputSlot": {
                "m_Node": {
                    "m_Id": "1861d8df70b24b15b14de00b7e7522ae"
                },
                "m_SlotId": 1
            },
            "m_InputSlot": {
                "m_Node": {
                    "m_Id": "3d79e94e37524954b7bf5145fe4bd387"
                },
                "m_SlotId": 0
            }
        },
        {
            "m_OutputSlot": {
                "m_Node": {
                    "m_Id": "1861d8df70b24b15b14de00b7e7522ae"
                },
                "m_SlotId": 1
            },
            "m_InputSlot": {
                "m_Node": {
                    "m_Id": "5c9190c46a6148b1ac82945f2a8dc875"
                },
                "m_SlotId": 0
            }
        },
        {
            "m_OutputSlot": {
                "m_Node": {
                    "m_Id": "3d79e94e37524954b7bf5145fe4bd387"
                },
                "m_SlotId": 2
            },
            "m_InputSlot": {
                "m_Node": {
                    "m_Id": "5afb912d81ca4bc59c44f2532db0cb4d"
                },
                "m_SlotId": 0
            }
        },
        {
            "m_OutputSlot": {
                "m_Node": {
                    "m_Id": "554835de155e4443b94542f44657bbdb"
                },
                "m_SlotId": 3
            },
            "m_InputSlot": {
                "m_Node": {
                    "m_Id": "8f82bf7a63a14b968e9c7b8bf8057a78"
                },
                "m_SlotId": 0
            }
        },
        {
            "m_OutputSlot": {
                "m_Node": {
                    "m_Id": "561583b439a94394880430a10e9032d2"
                },
                "m_SlotId": 3
            },
            "m_InputSlot": {
                "m_Node": {
                    "m_Id": "3d79e94e37524954b7bf5145fe4bd387"
                },
                "m_SlotId": 1
            }
        },
        {
            "m_OutputSlot": {
                "m_Node": {
                    "m_Id": "561583b439a94394880430a10e9032d2"
                },
                "m_SlotId": 3
            },
            "m_InputSlot": {
                "m_Node": {
                    "m_Id": "5c9190c46a6148b1ac82945f2a8dc875"
                },
                "m_SlotId": 1
            }
        },
        {
            "m_OutputSlot": {
                "m_Node": {
                    "m_Id": "561583b439a94394880430a10e9032d2"
                },
                "m_SlotId": 3
            },
            "m_InputSlot": {
                "m_Node": {
                    "m_Id": "8f82bf7a63a14b968e9c7b8bf8057a78"
                },
                "m_SlotId": 1
            }
        },
        {
            "m_OutputSlot": {
                "m_Node": {
                    "m_Id": "5618bb17a0424bbebd517184ab727c19"
                },
                "m_SlotId": 2
            },
            "m_InputSlot": {
                "m_Node": {
                    "m_Id": "561583b439a94394880430a10e9032d2"
                },
                "m_SlotId": 0
            }
        },
        {
            "m_OutputSlot": {
                "m_Node": {
                    "m_Id": "5afb912d81ca4bc59c44f2532db0cb4d"
                },
                "m_SlotId": 1
            },
            "m_InputSlot": {
                "m_Node": {
                    "m_Id": "727b7f445cbe4154b1a22ed213fe2b70"
                },
                "m_SlotId": 0
            }
        },
        {
            "m_OutputSlot": {
                "m_Node": {
                    "m_Id": "5c9190c46a6148b1ac82945f2a8dc875"
                },
                "m_SlotId": 3
            },
            "m_InputSlot": {
                "m_Node": {
                    "m_Id": "7f0877e6f3604fea97da99cacfe8d304"
                },
                "m_SlotId": 0
            }
        },
        {
            "m_OutputSlot": {
                "m_Node": {
                    "m_Id": "60094c3e6eda453ab80d052b15c05766"
                },
                "m_SlotId": 0
            },
            "m_InputSlot": {
                "m_Node": {
                    "m_Id": "5e544a5576154b34b891e075006cfb30"
                },
                "m_SlotId": 0
            }
        },
        {
            "m_OutputSlot": {
                "m_Node": {
                    "m_Id": "6ca12267c3e5476286cfa4f2787a9285"
                },
                "m_SlotId": 0
            },
            "m_InputSlot": {
                "m_Node": {
                    "m_Id": "86f21547474b4db2a94415c86b68a2fc"
                },
                "m_SlotId": 1
            }
        },
        {
            "m_OutputSlot": {
                "m_Node": {
                    "m_Id": "75282b20252b44fa9e70b9be2fab53c3"
                },
                "m_SlotId": 2
            },
            "m_InputSlot": {
                "m_Node": {
                    "m_Id": "3bd0f44f74d545d7b339f9e94e37aa3a"
                },
                "m_SlotId": 0
            }
        },
        {
            "m_OutputSlot": {
                "m_Node": {
                    "m_Id": "7f0877e6f3604fea97da99cacfe8d304"
                },
                "m_SlotId": 1
            },
            "m_InputSlot": {
                "m_Node": {
                    "m_Id": "e23f94003ea140e687f183db07fff2cf"
                },
                "m_SlotId": 0
            }
        },
        {
            "m_OutputSlot": {
                "m_Node": {
                    "m_Id": "86f21547474b4db2a94415c86b68a2fc"
                },
                "m_SlotId": 0
            },
            "m_InputSlot": {
                "m_Node": {
                    "m_Id": "51b257ef0a54429e9fa90b3cbbf3d6a3"
                },
                "m_SlotId": 0
            }
        },
        {
            "m_OutputSlot": {
                "m_Node": {
                    "m_Id": "8f82bf7a63a14b968e9c7b8bf8057a78"
                },
                "m_SlotId": 2
            },
            "m_InputSlot": {
                "m_Node": {
                    "m_Id": "5c9190c46a6148b1ac82945f2a8dc875"
                },
                "m_SlotId": 2
            }
        },
        {
            "m_OutputSlot": {
                "m_Node": {
                    "m_Id": "a2d749a8a3644642985662c380dca5c5"
                },
                "m_SlotId": 0
            },
            "m_InputSlot": {
                "m_Node": {
                    "m_Id": "090f00b140524fbfb14748c82ac042ba"
                },
                "m_SlotId": 1
            }
        },
        {
            "m_OutputSlot": {
                "m_Node": {
                    "m_Id": "aba2ba5df4854107afb7dc495b411fcb"
                },
                "m_SlotId": 0
            },
            "m_InputSlot": {
                "m_Node": {
                    "m_Id": "554835de155e4443b94542f44657bbdb"
                },
                "m_SlotId": 0
            }
        },
        {
            "m_OutputSlot": {
                "m_Node": {
                    "m_Id": "bde14e6776c747d9a9e26779ec988f41"
                },
                "m_SlotId": 0
            },
            "m_InputSlot": {
                "m_Node": {
                    "m_Id": "e48a4daa26084be69e5df1052b13866c"
                },
                "m_SlotId": 1
            }
        },
        {
            "m_OutputSlot": {
                "m_Node": {
                    "m_Id": "c2f1baad4d3147b4bd10f8331112644a"
                },
                "m_SlotId": 0
            },
            "m_InputSlot": {
                "m_Node": {
                    "m_Id": "1861d8df70b24b15b14de00b7e7522ae"
                },
                "m_SlotId": 0
            }
        },
        {
            "m_OutputSlot": {
                "m_Node": {
                    "m_Id": "da81e991913b4261a97aca6cf4cf081a"
                },
                "m_SlotId": 0
            },
            "m_InputSlot": {
                "m_Node": {
                    "m_Id": "e23f94003ea140e687f183db07fff2cf"
                },
                "m_SlotId": 1
            }
        },
        {
            "m_OutputSlot": {
                "m_Node": {
                    "m_Id": "db0985251adf48e480369ecd328b9513"
                },
                "m_SlotId": 0
            },
            "m_InputSlot": {
                "m_Node": {
                    "m_Id": "60094c3e6eda453ab80d052b15c05766"
                },
                "m_SlotId": 1
            }
        },
        {
            "m_OutputSlot": {
                "m_Node": {
                    "m_Id": "e23f94003ea140e687f183db07fff2cf"
                },
                "m_SlotId": 2
            },
            "m_InputSlot": {
                "m_Node": {
                    "m_Id": "75282b20252b44fa9e70b9be2fab53c3"
                },
                "m_SlotId": 1
            }
        },
        {
            "m_OutputSlot": {
                "m_Node": {
                    "m_Id": "e48a4daa26084be69e5df1052b13866c"
                },
                "m_SlotId": 0
            },
            "m_InputSlot": {
                "m_Node": {
                    "m_Id": "75282b20252b44fa9e70b9be2fab53c3"
                },
                "m_SlotId": 0
            }
        }
    ],
    "m_VertexContext": {
        "m_Position": {
            "x": 3171.199951171875,
            "y": 839.2000122070313
        },
        "m_Blocks": [
            {
                "m_Id": "7be54f74530a41d1b2597047c460d742"
            },
            {
                "m_Id": "249db29018924b58b69f4f6063f38081"
            },
            {
                "m_Id": "f144401560d1404da506da8f7f9f8709"
            }
        ]
    },
    "m_FragmentContext": {
        "m_Position": {
            "x": 3172.800048828125,
            "y": 1065.5999755859375
        },
        "m_Blocks": [
            {
                "m_Id": "88137b6abf6a46858fcfa6a1808d4473"
            },
            {
                "m_Id": "51b257ef0a54429e9fa90b3cbbf3d6a3"
            },
            {
                "m_Id": "92a278fc2c794eaeb5c9ecbe4b56fc55"
            },
            {
                "m_Id": "5e544a5576154b34b891e075006cfb30"
            },
            {
                "m_Id": "3bd0f44f74d545d7b339f9e94e37aa3a"
            },
            {
                "m_Id": "efa68c3706bb41e3af8dc44caaf81587"
            },
            {
                "m_Id": "0900b205a7c3491eb0b7ba06826dff4f"
            },
            {
                "m_Id": "8045eab5d4ba4261b6d37a2a333e36b6"
            },
            {
                "m_Id": "727b7f445cbe4154b1a22ed213fe2b70"
            },
            {
                "m_Id": "6d51b1d258994bc6885977e979bd3938"
            },
            {
                "m_Id": "e333950441be43a49f2b1c867cfbfd9a"
            }
        ]
    },
    "m_PreviewData": {
        "serializedMesh": {
            "m_SerializedMesh": "{\"mesh\":{\"instanceID\":0}}",
            "m_Guid": ""
        }
    },
    "m_Path": "Shader Graphs",
    "m_ConcretePrecision": 0,
    "m_PreviewMode": 2,
    "m_OutputNode": {
        "m_Id": ""
    },
    "m_ActiveTargets": [
        {
            "m_Id": "e7645f04ceba45acbbd00641694f2b5e"
        }
    ]
}

{
    "m_SGVersion": 0,
    "m_Type": "UnityEditor.ShaderGraph.Vector1MaterialSlot",
    "m_ObjectId": "0284be88a7e34e0c83d61270aedeae41",
    "m_Id": 0,
    "m_DisplayName": "Ambient Occlusion",
    "m_SlotType": 0,
    "m_Hidden": false,
    "m_ShaderOutputName": "Occlusion",
    "m_StageCapability": 2,
    "m_Value": 1.0,
    "m_DefaultValue": 1.0,
    "m_Labels": []
}

{
    "m_SGVersion": 0,
    "m_Type": "UnityEditor.ShaderGraph.ColorRGBMaterialSlot",
    "m_ObjectId": "03b4be44b84b4fbb8bbad80862d8f778",
    "m_Id": 0,
    "m_DisplayName": "Emission",
    "m_SlotType": 0,
    "m_Hidden": false,
    "m_ShaderOutputName": "Emission",
    "m_StageCapability": 2,
    "m_Value": {
        "x": 0.0,
        "y": 0.0,
        "z": 0.0
    },
    "m_DefaultValue": {
        "x": 0.0,
        "y": 0.0,
        "z": 0.0
    },
    "m_Labels": [],
    "m_ColorMode": 1,
    "m_DefaultColor": {
        "r": 0.0,
        "g": 0.0,
        "b": 0.0,
        "a": 1.0
    }
}

{
    "m_SGVersion": 0,
    "m_Type": "UnityEditor.ShaderGraph.Vector1MaterialSlot",
    "m_ObjectId": "072484995fc84585b8a79c0ed1b71841",
    "m_Id": 0,
    "m_DisplayName": "Alpha",
    "m_SlotType": 0,
    "m_Hidden": false,
    "m_ShaderOutputName": "Alpha",
    "m_StageCapability": 2,
    "m_Value": 0.9990000128746033,
    "m_DefaultValue": 1.0,
    "m_Labels": []
}

{
    "m_SGVersion": 0,
    "m_Type": "UnityEditor.ShaderGraph.BlockNode",
    "m_ObjectId": "0900b205a7c3491eb0b7ba06826dff4f",
    "m_Group": {
        "m_Id": ""
    },
    "m_Name": "SurfaceDescription.Occlusion",
    "m_DrawState": {
        "m_Expanded": true,
        "m_Position": {
            "serializedVersion": "2",
            "x": 0.0,
            "y": 0.0,
            "width": 0.0,
            "height": 0.0
        }
    },
    "m_Slots": [
        {
            "m_Id": "0284be88a7e34e0c83d61270aedeae41"
        }
    ],
    "synonyms": [],
    "m_Precision": 0,
    "m_PreviewExpanded": true,
    "m_PreviewMode": 0,
    "m_CustomColors": {
        "m_SerializableColors": []
    },
    "m_SerializedDescriptor": "SurfaceDescription.Occlusion"
}

{
    "m_SGVersion": 0,
    "m_Type": "UnityEditor.ShaderGraph.SampleTexture2DNode",
    "m_ObjectId": "090f00b140524fbfb14748c82ac042ba",
    "m_Group": {
        "m_Id": ""
    },
    "m_Name": "Sample Texture 2D",
    "m_DrawState": {
        "m_Expanded": true,
        "m_Position": {
            "serializedVersion": "2",
            "x": 497.5999755859375,
            "y": -174.3999786376953,
            "width": 186.39999389648438,
            "height": 250.3999786376953
        }
    },
    "m_Slots": [
        {
            "m_Id": "200723658ee64b61997586f81db2d96d"
        },
        {
            "m_Id": "9910a5be409f401d981446e3ff4055f0"
        },
        {
            "m_Id": "4e8c54c1a36a45989ca697d4de54bbfb"
        },
        {
            "m_Id": "82dc9540664c448db36b8d43042bdf63"
        },
        {
            "m_Id": "829f218198374d48b14b601ba5b210b0"
        },
        {
            "m_Id": "63596c856de640dbbe16b6353c167093"
        },
        {
            "m_Id": "cb4df7efed704d3b9278f64e48694806"
        },
        {
            "m_Id": "55de7c9b8a72486fa8c297b6c798c2ae"
        }
    ],
    "synonyms": [],
    "m_Precision": 0,
    "m_PreviewExpanded": false,
    "m_PreviewMode": 0,
    "m_CustomColors": {
        "m_SerializableColors": []
    },
    "m_TextureType": 0,
    "m_NormalMapSpace": 0
}

{
    "m_SGVersion": 0,
    "m_Type": "UnityEditor.Rendering.HighDefinition.ShaderGraph.SystemData",
    "m_ObjectId": "0fa2c1cc2ec8409ba6340093782e3c76",
    "m_MaterialNeedsUpdateHash": 292537,
    "m_SurfaceType": 1,
    "m_RenderingPass": 4,
    "m_BlendMode": 0,
    "m_ZTest": 4,
    "m_ZWrite": true,
    "m_TransparentCullMode": 1,
    "m_OpaqueCullMode": 2,
    "m_SortPriority": 0,
    "m_AlphaTest": true,
    "m_TransparentDepthPrepass": false,
    "m_TransparentDepthPostpass": false,
    "m_SupportLodCrossFade": false,
    "m_DoubleSidedMode": 1,
    "m_DOTSInstancing": false,
    "m_Version": 0,
    "m_FirstTimeMigrationExecuted": true,
    "inspectorFoldoutMask": 9
}

{
    "m_SGVersion": 0,
    "m_Type": "UnityEditor.ShaderGraph.Vector1MaterialSlot",
    "m_ObjectId": "11de24cfb07f404b86f08b043d7434cd",
    "m_Id": 5,
    "m_DisplayName": "G",
    "m_SlotType": 1,
    "m_Hidden": false,
    "m_ShaderOutputName": "G",
    "m_StageCapability": 2,
    "m_Value": 0.0,
    "m_DefaultValue": 0.0,
    "m_Labels": []
}

{
    "m_SGVersion": 0,
    "m_Type": "UnityEditor.ShaderGraph.DynamicValueMaterialSlot",
    "m_ObjectId": "1382cd8d95f44dc88fc2c3f2df5b6e69",
    "m_Id": 2,
    "m_DisplayName": "Out",
    "m_SlotType": 1,
    "m_Hidden": false,
    "m_ShaderOutputName": "Out",
    "m_StageCapability": 3,
    "m_Value": {
        "e00": 0.0,
        "e01": 0.0,
        "e02": 0.0,
        "e03": 0.0,
        "e10": 0.0,
        "e11": 0.0,
        "e12": 0.0,
        "e13": 0.0,
        "e20": 0.0,
        "e21": 0.0,
        "e22": 0.0,
        "e23": 0.0,
        "e30": 0.0,
        "e31": 0.0,
        "e32": 0.0,
        "e33": 0.0
    },
    "m_DefaultValue": {
        "e00": 1.0,
        "e01": 0.0,
        "e02": 0.0,
        "e03": 0.0,
        "e10": 0.0,
        "e11": 1.0,
        "e12": 0.0,
        "e13": 0.0,
        "e20": 0.0,
        "e21": 0.0,
        "e22": 1.0,
        "e23": 0.0,
        "e30": 0.0,
        "e31": 0.0,
        "e32": 0.0,
        "e33": 1.0
    }
}

{
    "m_SGVersion": 0,
    "m_Type": "UnityEditor.ShaderGraph.DynamicVectorMaterialSlot",
    "m_ObjectId": "1504c99f047e459cba20750e33be2d5f",
    "m_Id": 0,
    "m_DisplayName": "In",
    "m_SlotType": 0,
    "m_Hidden": false,
    "m_ShaderOutputName": "In",
    "m_StageCapability": 3,
    "m_Value": {
        "x": 0.0,
        "y": 0.0,
        "z": 0.0,
        "w": 0.0
    },
    "m_DefaultValue": {
        "x": 0.0,
        "y": 0.0,
        "z": 0.0,
        "w": 0.0
    }
}

{
    "m_SGVersion": 0,
    "m_Type": "UnityEditor.ShaderGraph.SplitNode",
    "m_ObjectId": "1861d8df70b24b15b14de00b7e7522ae",
    "m_Group": {
        "m_Id": ""
    },
    "m_Name": "Split",
    "m_DrawState": {
        "m_Expanded": true,
        "m_Position": {
            "serializedVersion": "2",
            "x": 475.2000427246094,
            "y": 1327.199951171875,
            "width": 120.79998779296875,
            "height": 148.800048828125
        }
    },
    "m_Slots": [
        {
            "m_Id": "583cd5ce5d18496ebe3ff7b9aa9c4c32"
        },
        {
            "m_Id": "98ab9ca6d0964c8fa2aac73d0353f085"
        },
        {
            "m_Id": "877b08d684374673899c8c6da910768a"
        },
        {
            "m_Id": "fd58eb1c9aea466db5f3b642844f57fa"
        },
        {
            "m_Id": "b2a2e6e99b3a492f8ee746937499dadc"
        }
    ],
    "synonyms": [],
    "m_Precision": 0,
    "m_PreviewExpanded": true,
    "m_PreviewMode": 0,
    "m_CustomColors": {
        "m_SerializableColors": []
    }
}

{
    "m_SGVersion": 1,
    "m_Type": "UnityEditor.ShaderGraph.Internal.Vector1ShaderProperty",
    "m_ObjectId": "1a0bc50cbfd6432c8514f968315547ca",
    "m_Guid": {
        "m_GuidSerialized": "9dafdaa2-51f3-4664-af6c-d73caca57c3c"
    },
    "m_Name": "Edge Spread",
    "m_DefaultRefNameVersion": 1,
    "m_RefNameGeneratedByDisplayName": "Edge Spread",
    "m_DefaultReferenceName": "Edge_Spread",
    "m_OverrideReferenceName": "",
    "m_GeneratePropertyBlock": true,
    "m_Precision": 0,
    "overrideHLSLDeclaration": false,
    "hlslDeclarationOverride": 0,
    "m_Hidden": false,
    "m_Value": 0.019999999552965165,
    "m_FloatType": 1,
    "m_RangeValues": {
        "x": 0.0,
        "y": 0.5
    }
}

{
    "m_SGVersion": 0,
    "m_Type": "UnityEditor.Rendering.HighDefinition.ShaderGraph.HDLitData",
    "m_ObjectId": "1b43164456fe41d2a83fff8dca51e931",
    "m_RayTracing": false,
    "m_MaterialType": 0,
    "m_RefractionModel": 0,
    "m_SSSTransmission": true,
    "m_EnergyConservingSpecular": true,
    "m_ClearCoat": false
}

{
    "m_SGVersion": 0,
    "m_Type": "UnityEditor.ShaderGraph.Vector1MaterialSlot",
    "m_ObjectId": "1d83edc02f7949a198b85f8392b0bf1e",
    "m_Id": 0,
    "m_DisplayName": "Smoothness",
    "m_SlotType": 0,
    "m_Hidden": false,
    "m_ShaderOutputName": "Smoothness",
    "m_StageCapability": 2,
    "m_Value": 0.5,
    "m_DefaultValue": 0.5,
    "m_Labels": []
}

{
    "m_SGVersion": 0,
    "m_Type": "UnityEditor.ShaderGraph.Vector2MaterialSlot",
    "m_ObjectId": "1ea1dea6e27f4ca685ceff4028b0a970",
    "m_Id": 2,
    "m_DisplayName": "Out Min Max",
    "m_SlotType": 0,
    "m_Hidden": false,
    "m_ShaderOutputName": "OutMinMax",
    "m_StageCapability": 3,
    "m_Value": {
        "x": 0.0,
        "y": 1.0
    },
    "m_DefaultValue": {
        "x": 0.0,
        "y": 0.0
    },
    "m_Labels": []
}

{
    "m_SGVersion": 0,
    "m_Type": "UnityEditor.ShaderGraph.UVMaterialSlot",
    "m_ObjectId": "1eceeac79656400cb25c49e1b442f532",
    "m_Id": 2,
    "m_DisplayName": "UV",
    "m_SlotType": 0,
    "m_Hidden": false,
    "m_ShaderOutputName": "UV",
    "m_StageCapability": 3,
    "m_Value": {
        "x": 0.0,
        "y": 0.0
    },
    "m_DefaultValue": {
        "x": 0.0,
        "y": 0.0
    },
    "m_Labels": [],
    "m_Channel": 0
}

{
    "m_SGVersion": 0,
    "m_Type": "UnityEditor.ShaderGraph.Vector4MaterialSlot",
    "m_ObjectId": "200723658ee64b61997586f81db2d96d",
    "m_Id": 0,
    "m_DisplayName": "RGBA",
    "m_SlotType": 1,
    "m_Hidden": false,
    "m_ShaderOutputName": "RGBA",
    "m_StageCapability": 2,
    "m_Value": {
        "x": 0.0,
        "y": 0.0,
        "z": 0.0,
        "w": 0.0
    },
    "m_DefaultValue": {
        "x": 0.0,
        "y": 0.0,
        "z": 0.0,
        "w": 0.0
    },
    "m_Labels": []
}

{
    "m_SGVersion": 0,
    "m_Type": "UnityEditor.ShaderGraph.BlockNode",
    "m_ObjectId": "249db29018924b58b69f4f6063f38081",
    "m_Group": {
        "m_Id": ""
    },
    "m_Name": "VertexDescription.Normal",
    "m_DrawState": {
        "m_Expanded": true,
        "m_Position": {
            "serializedVersion": "2",
            "x": 0.0,
            "y": 0.0,
            "width": 0.0,
            "height": 0.0
        }
    },
    "m_Slots": [
        {
            "m_Id": "895c8724b6b4403bad13ac957261f2f7"
        }
    ],
    "synonyms": [],
    "m_Precision": 0,
    "m_PreviewExpanded": true,
    "m_PreviewMode": 0,
    "m_CustomColors": {
        "m_SerializableColors": []
    },
    "m_SerializedDescriptor": "VertexDescription.Normal"
}

{
    "m_SGVersion": 0,
    "m_Type": "UnityEditor.ShaderGraph.Vector4MaterialSlot",
    "m_ObjectId": "24be38444d0244378e2645581e0ff991",
    "m_Id": 0,
    "m_DisplayName": "RGBA",
    "m_SlotType": 1,
    "m_Hidden": false,
    "m_ShaderOutputName": "RGBA",
    "m_StageCapability": 2,
    "m_Value": {
        "x": 0.0,
        "y": 0.0,
        "z": 0.0,
        "w": 0.0
    },
    "m_DefaultValue": {
        "x": 0.0,
        "y": 0.0,
        "z": 0.0,
        "w": 0.0
    },
    "m_Labels": []
}

{
    "m_SGVersion": 0,
    "m_Type": "UnityEditor.ShaderGraph.Vector1MaterialSlot",
    "m_ObjectId": "252734951dab4ae7be1dd5bc3e4797e5",
    "m_Id": 3,
    "m_DisplayName": "Delta Time",
    "m_SlotType": 1,
    "m_Hidden": false,
    "m_ShaderOutputName": "Delta Time",
    "m_StageCapability": 3,
    "m_Value": 0.0,
    "m_DefaultValue": 0.0,
    "m_Labels": []
}

{
    "m_SGVersion": 1,
    "m_Type": "UnityEditor.ShaderGraph.Internal.Vector1ShaderProperty",
    "m_ObjectId": "25d7e2d431e34ae2af9bd43dce30ab20",
    "m_Guid": {
        "m_GuidSerialized": "e27fdad3-2d19-4b20-a804-65442fe4b5e3"
    },
    "m_Name": "Split Value",
    "m_DefaultRefNameVersion": 1,
    "m_RefNameGeneratedByDisplayName": "Split Value",
    "m_DefaultReferenceName": "Split_Value",
    "m_OverrideReferenceName": "",
    "m_GeneratePropertyBlock": true,
    "m_Precision": 0,
    "overrideHLSLDeclaration": false,
    "hlslDeclarationOverride": 0,
    "m_Hidden": false,
    "m_Value": 0.20000000298023225,
    "m_FloatType": 0,
    "m_RangeValues": {
        "x": 0.0,
        "y": 1.0
    }
}

{
    "m_SGVersion": 0,
    "m_Type": "UnityEditor.ShaderGraph.NormalMaterialSlot",
    "m_ObjectId": "2b1f69ce46234615a734de3af2d82afb",
    "m_Id": 0,
    "m_DisplayName": "Bent Normal",
    "m_SlotType": 0,
    "m_Hidden": false,
    "m_ShaderOutputName": "BentNormal",
    "m_StageCapability": 2,
    "m_Value": {
        "x": 0.0,
        "y": 0.0,
        "z": 0.0
    },
    "m_DefaultValue": {
        "x": 0.0,
        "y": 0.0,
        "z": 0.0
    },
    "m_Labels": [],
    "m_Space": 3
}

{
    "m_SGVersion": 0,
    "m_Type": "UnityEditor.ShaderGraph.DynamicValueMaterialSlot",
    "m_ObjectId": "2e30e7dbcbb04facbe67bdadc0902209",
    "m_Id": 0,
    "m_DisplayName": "A",
    "m_SlotType": 0,
    "m_Hidden": false,
    "m_ShaderOutputName": "A",
    "m_StageCapability": 3,
    "m_Value": {
        "e00": 0.0,
        "e01": 0.0,
        "e02": 0.0,
        "e03": 0.0,
        "e10": 0.0,
        "e11": 0.0,
        "e12": 0.0,
        "e13": 0.0,
        "e20": 0.0,
        "e21": 0.0,
        "e22": 0.0,
        "e23": 0.0,
        "e30": 0.0,
        "e31": 0.0,
        "e32": 0.0,
        "e33": 0.0
    },
    "m_DefaultValue": {
        "e00": 1.0,
        "e01": 0.0,
        "e02": 0.0,
        "e03": 0.0,
        "e10": 0.0,
        "e11": 1.0,
        "e12": 0.0,
        "e13": 0.0,
        "e20": 0.0,
        "e21": 0.0,
        "e22": 1.0,
        "e23": 0.0,
        "e30": 0.0,
        "e31": 0.0,
        "e32": 0.0,
        "e33": 1.0
    }
}

{
    "m_SGVersion": 0,
    "m_Type": "UnityEditor.Rendering.HighDefinition.ShaderGraph.HDLitSubTarget",
    "m_ObjectId": "2e7215bd16204879b2754bdc2bc21196"
}

{
    "m_SGVersion": 0,
    "m_Type": "UnityEditor.ShaderGraph.DynamicVectorMaterialSlot",
    "m_ObjectId": "3698d4efa7c84434a284abe0fb1549f0",
    "m_Id": 0,
    "m_DisplayName": "A",
    "m_SlotType": 0,
    "m_Hidden": false,
    "m_ShaderOutputName": "A",
    "m_StageCapability": 3,
    "m_Value": {
        "x": 0.0,
        "y": 0.0,
        "z": 0.0,
        "w": 0.0
    },
    "m_DefaultValue": {
        "x": 0.0,
        "y": 0.0,
        "z": 0.0,
        "w": 0.0
    }
}

{
    "m_SGVersion": 0,
    "m_Type": "UnityEditor.ShaderGraph.Internal.Texture2DShaderProperty",
    "m_ObjectId": "36ce2576a5f94344ac5ea50251e82992",
    "m_Guid": {
        "m_GuidSerialized": "7a6d984a-ffbb-432f-87cc-d91d941fce36"
    },
    "m_Name": "Normal",
    "m_DefaultRefNameVersion": 1,
    "m_RefNameGeneratedByDisplayName": "Normal",
    "m_DefaultReferenceName": "Normal",
    "m_OverrideReferenceName": "",
    "m_GeneratePropertyBlock": true,
    "m_Precision": 0,
    "overrideHLSLDeclaration": false,
    "hlslDeclarationOverride": 0,
    "m_Hidden": false,
    "m_Value": {
        "m_SerializedTexture": "{\"texture\":{\"instanceID\":0}}",
        "m_Guid": ""
    },
    "m_Modifiable": true,
    "m_DefaultType": 0
}

{
    "m_SGVersion": 0,
    "m_Type": "UnityEditor.ShaderGraph.BlockNode",
    "m_ObjectId": "3bd0f44f74d545d7b339f9e94e37aa3a",
    "m_Group": {
        "m_Id": ""
    },
    "m_Name": "SurfaceDescription.Emission",
    "m_DrawState": {
        "m_Expanded": true,
        "m_Position": {
            "serializedVersion": "2",
            "x": 0.0,
            "y": 0.0,
            "width": 0.0,
            "height": 0.0
        }
    },
    "m_Slots": [
        {
            "m_Id": "03b4be44b84b4fbb8bbad80862d8f778"
        }
    ],
    "synonyms": [],
    "m_Precision": 0,
    "m_PreviewExpanded": true,
    "m_PreviewMode": 0,
    "m_CustomColors": {
        "m_SerializableColors": []
    },
    "m_SerializedDescriptor": "SurfaceDescription.Emission"
}

{
    "m_SGVersion": 0,
    "m_Type": "UnityEditor.ShaderGraph.DynamicVectorMaterialSlot",
    "m_ObjectId": "3c37b6ba20634b00a08acd76d625c55f",
    "m_Id": 3,
    "m_DisplayName": "Out",
    "m_SlotType": 1,
    "m_Hidden": false,
    "m_ShaderOutputName": "Out",
    "m_StageCapability": 3,
    "m_Value": {
        "x": 0.0,
        "y": 0.0,
        "z": 0.0,
        "w": 0.0
    },
    "m_DefaultValue": {
        "x": 0.0,
        "y": 0.0,
        "z": 0.0,
        "w": 0.0
    }
}

{
    "m_SGVersion": 0,
    "m_Type": "UnityEditor.ShaderGraph.StepNode",
    "m_ObjectId": "3d79e94e37524954b7bf5145fe4bd387",
    "m_Group": {
        "m_Id": ""
    },
    "m_Name": "Step",
    "m_DrawState": {
        "m_Expanded": true,
        "m_Position": {
            "serializedVersion": "2",
            "x": 1201.5999755859375,
            "y": 1802.400146484375,
            "width": 208.00001525878907,
            "height": 302.4000244140625
        }
    },
    "m_Slots": [
        {
            "m_Id": "e3c20cb4290847fdb48e783359a7a098"
        },
        {
            "m_Id": "b3d163ea438c4286a1a18133ea91a2c9"
        },
        {
            "m_Id": "e50547b0bffa43fcaf0af0490e634e09"
        }
    ],
    "synonyms": [],
    "m_Precision": 0,
    "m_PreviewExpanded": true,
    "m_PreviewMode": 0,
    "m_CustomColors": {
        "m_SerializableColors": []
    }
}

{
    "m_SGVersion": 0,
    "m_Type": "UnityEditor.ShaderGraph.Vector4MaterialSlot",
    "m_ObjectId": "3eaf810ef6d34f4d8e460676ebb34d7d",
    "m_Id": 0,
    "m_DisplayName": "RGBA",
    "m_SlotType": 1,
    "m_Hidden": false,
    "m_ShaderOutputName": "RGBA",
    "m_StageCapability": 2,
    "m_Value": {
        "x": 0.0,
        "y": 0.0,
        "z": 0.0,
        "w": 0.0
    },
    "m_DefaultValue": {
        "x": 0.0,
        "y": 0.0,
        "z": 0.0,
        "w": 0.0
    },
    "m_Labels": []
}

{
    "m_SGVersion": 0,
    "m_Type": "UnityEditor.ShaderGraph.DynamicVectorMaterialSlot",
    "m_ObjectId": "3f2b7e55356d4c808acdf30683b3526b",
    "m_Id": 1,
    "m_DisplayName": "Edge2",
    "m_SlotType": 0,
    "m_Hidden": false,
    "m_ShaderOutputName": "Edge2",
    "m_StageCapability": 3,
    "m_Value": {
        "x": 1.0,
        "y": 1.0,
        "z": 1.0,
        "w": 1.0
    },
    "m_DefaultValue": {
        "x": 0.0,
        "y": 0.0,
        "z": 0.0,
        "w": 0.0
    }
}

{
    "m_SGVersion": 0,
    "m_Type": "UnityEditor.ShaderGraph.Internal.Texture2DShaderProperty",
    "m_ObjectId": "3f63a3e9e7d14721b5c7a45a678d957c",
    "m_Guid": {
        "m_GuidSerialized": "a3edbd22-87bb-41ff-bc0c-36a2462ac3b4"
    },
    "m_Name": "Albedo",
    "m_DefaultRefNameVersion": 1,
    "m_RefNameGeneratedByDisplayName": "Albedo",
    "m_DefaultReferenceName": "Albedo",
    "m_OverrideReferenceName": "",
    "m_GeneratePropertyBlock": true,
    "m_Precision": 0,
    "overrideHLSLDeclaration": false,
    "hlslDeclarationOverride": 0,
    "m_Hidden": false,
    "m_Value": {
        "m_SerializedTexture": "{\"texture\":{\"instanceID\":0}}",
        "m_Guid": ""
    },
    "m_Modifiable": true,
    "m_DefaultType": 0
}

{
    "m_SGVersion": 0,
    "m_Type": "UnityEditor.ShaderGraph.Vector1MaterialSlot",
    "m_ObjectId": "42c57bd35816423c9a798bf99b7c9adf",
    "m_Id": 0,
    "m_DisplayName": "Split Value",
    "m_SlotType": 1,
    "m_Hidden": false,
    "m_ShaderOutputName": "Out",
    "m_StageCapability": 3,
    "m_Value": 0.0,
    "m_DefaultValue": 0.0,
    "m_Labels": []
}

{
    "m_SGVersion": 0,
    "m_Type": "UnityEditor.ShaderGraph.Vector4MaterialSlot",
    "m_ObjectId": "45ce54766ba045408d6a6ca7f2503f70",
    "m_Id": 0,
    "m_DisplayName": "RGBA",
    "m_SlotType": 1,
    "m_Hidden": false,
    "m_ShaderOutputName": "RGBA",
    "m_StageCapability": 2,
    "m_Value": {
        "x": 0.0,
        "y": 0.0,
        "z": 0.0,
        "w": 0.0
    },
    "m_DefaultValue": {
        "x": 0.0,
        "y": 0.0,
        "z": 0.0,
        "w": 0.0
    },
    "m_Labels": []
}

{
    "m_SGVersion": 0,
    "m_Type": "UnityEditor.ShaderGraph.DynamicVectorMaterialSlot",
    "m_ObjectId": "4ae8df3257c9410c921c135d1bf8ac25",
    "m_Id": 1,
    "m_DisplayName": "Out",
    "m_SlotType": 1,
    "m_Hidden": false,
    "m_ShaderOutputName": "Out",
    "m_StageCapability": 3,
    "m_Value": {
        "x": 0.0,
        "y": 0.0,
        "z": 0.0,
        "w": 0.0
    },
    "m_DefaultValue": {
        "x": 0.0,
        "y": 0.0,
        "z": 0.0,
        "w": 0.0
    }
}

{
    "m_SGVersion": 0,
    "m_Type": "UnityEditor.ShaderGraph.Vector1MaterialSlot",
    "m_ObjectId": "4b42abf06de5494c8fd0863a959993a3",
    "m_Id": 1,
    "m_DisplayName": "Sine Time",
    "m_SlotType": 1,
    "m_Hidden": false,
    "m_ShaderOutputName": "Sine Time",
    "m_StageCapability": 3,
    "m_Value": 0.0,
    "m_DefaultValue": 0.0,
    "m_Labels": []
}

{
    "m_SGVersion": 0,
    "m_Type": "UnityEditor.ShaderGraph.Vector1MaterialSlot",
    "m_ObjectId": "4e8c54c1a36a45989ca697d4de54bbfb",
    "m_Id": 5,
    "m_DisplayName": "G",
    "m_SlotType": 1,
    "m_Hidden": false,
    "m_ShaderOutputName": "G",
    "m_StageCapability": 2,
    "m_Value": 0.0,
    "m_DefaultValue": 0.0,
    "m_Labels": []
}

{
    "m_SGVersion": 0,
    "m_Type": "UnityEditor.ShaderGraph.BlockNode",
    "m_ObjectId": "51b257ef0a54429e9fa90b3cbbf3d6a3",
    "m_Group": {
        "m_Id": ""
    },
    "m_Name": "SurfaceDescription.NormalTS",
    "m_DrawState": {
        "m_Expanded": true,
        "m_Position": {
            "serializedVersion": "2",
            "x": 0.0,
            "y": 0.0,
            "width": 0.0,
            "height": 0.0
        }
    },
    "m_Slots": [
        {
            "m_Id": "e564fa22cb654112ae3f9f30c2c53a17"
        }
    ],
    "synonyms": [],
    "m_Precision": 0,
    "m_PreviewExpanded": true,
    "m_PreviewMode": 0,
    "m_CustomColors": {
        "m_SerializableColors": []
    },
    "m_SerializedDescriptor": "SurfaceDescription.NormalTS"
}

{
    "m_SGVersion": 0,
    "m_Type": "UnityEditor.ShaderGraph.RemapNode",
    "m_ObjectId": "554835de155e4443b94542f44657bbdb",
    "m_Group": {
        "m_Id": ""
    },
    "m_Name": "Remap",
    "m_DrawState": {
        "m_Expanded": true,
        "m_Position": {
            "serializedVersion": "2",
            "x": 484.0,
            "y": 967.199951171875,
            "width": 208.0,
            "height": 326.3999328613281
        }
    },
    "m_Slots": [
        {
            "m_Id": "c65afad02ec34687930af1aa5a688705"
        },
        {
            "m_Id": "e79d1e4f450344168162c3bc41444b08"
        },
        {
            "m_Id": "1ea1dea6e27f4ca685ceff4028b0a970"
        },
        {
            "m_Id": "66c26c7bee4d4006888008c0e2adeeac"
        }
    ],
    "synonyms": [],
    "m_Precision": 0,
    "m_PreviewExpanded": true,
    "m_PreviewMode": 0,
    "m_CustomColors": {
        "m_SerializableColors": []
    }
}

{
    "m_SGVersion": 0,
    "m_Type": "UnityEditor.ShaderGraph.SamplerStateMaterialSlot",
    "m_ObjectId": "55de7c9b8a72486fa8c297b6c798c2ae",
    "m_Id": 3,
    "m_DisplayName": "Sampler",
    "m_SlotType": 0,
    "m_Hidden": false,
    "m_ShaderOutputName": "Sampler",
    "m_StageCapability": 3,
    "m_BareResource": false
}

{
    "m_SGVersion": 0,
    "m_Type": "UnityEditor.ShaderGraph.RemapNode",
    "m_ObjectId": "561583b439a94394880430a10e9032d2",
    "m_Group": {
        "m_Id": ""
    },
    "m_Name": "Remap",
    "m_DrawState": {
        "m_Expanded": true,
        "m_Position": {
            "serializedVersion": "2",
            "x": 529.5999755859375,
            "y": 1892.7999267578125,
            "width": 208.0,
            "height": 325.599853515625
        }
    },
    "m_Slots": [
        {
            "m_Id": "ad52eeaed6e44396828e0794f3fbc62e"
        },
        {
            "m_Id": "c31561a6788d47a6a6786e661684cc46"
        },
        {
            "m_Id": "7eca6e50b18449e78cea58e4589e03e2"
        },
        {
            "m_Id": "d2f31194697c43fe847b6344edf79b6d"
        }
    ],
    "synonyms": [],
    "m_Precision": 0,
    "m_PreviewExpanded": true,
    "m_PreviewMode": 0,
    "m_CustomColors": {
        "m_SerializableColors": []
    }
}

{
    "m_SGVersion": 0,
    "m_Type": "UnityEditor.ShaderGraph.TimeNode",
    "m_ObjectId": "5618bb17a0424bbebd517184ab727c19",
    "m_Group": {
        "m_Id": ""
    },
    "m_Name": "Time",
    "m_DrawState": {
        "m_Expanded": true,
        "m_Position": {
            "serializedVersion": "2",
            "x": 217.60000610351563,
            "y": 1821.5999755859375,
            "width": 128.0,
            "height": 173.5999755859375
        }
    },
    "m_Slots": [
        {
            "m_Id": "92f36287a61b4708b2c4b99159fa6e29"
        },
        {
            "m_Id": "4b42abf06de5494c8fd0863a959993a3"
        },
        {
            "m_Id": "fcb1a902c14b44e5a1d5f513a8de10f7"
        },
        {
            "m_Id": "252734951dab4ae7be1dd5bc3e4797e5"
        },
        {
            "m_Id": "dbe09cbf145749019f851142cd04e32d"
        }
    ],
    "synonyms": [],
    "m_Precision": 0,
    "m_PreviewExpanded": true,
    "m_PreviewMode": 0,
    "m_CustomColors": {
        "m_SerializableColors": []
    }
}

{
    "m_SGVersion": 0,
    "m_Type": "UnityEditor.ShaderGraph.DynamicVectorMaterialSlot",
    "m_ObjectId": "583cd5ce5d18496ebe3ff7b9aa9c4c32",
    "m_Id": 0,
    "m_DisplayName": "In",
    "m_SlotType": 0,
    "m_Hidden": false,
    "m_ShaderOutputName": "In",
    "m_StageCapability": 3,
    "m_Value": {
        "x": 0.0,
        "y": 0.0,
        "z": 0.0,
        "w": 0.0
    },
    "m_DefaultValue": {
        "x": 0.0,
        "y": 0.0,
        "z": 0.0,
        "w": 0.0
    }
}

{
    "m_SGVersion": 0,
    "m_Type": "UnityEditor.ShaderGraph.Texture2DInputMaterialSlot",
    "m_ObjectId": "5993e9734a544079abb4b6078655a14f",
    "m_Id": 1,
    "m_DisplayName": "Texture",
    "m_SlotType": 0,
    "m_Hidden": false,
    "m_ShaderOutputName": "Texture",
    "m_StageCapability": 3,
    "m_BareResource": false,
    "m_Texture": {
        "m_SerializedTexture": "{\"texture\":{\"instanceID\":0}}",
        "m_Guid": ""
    },
    "m_DefaultType": 3
}

{
    "m_SGVersion": 0,
    "m_Type": "UnityEditor.ShaderGraph.InvertColorsNode",
    "m_ObjectId": "5afb912d81ca4bc59c44f2532db0cb4d",
    "m_Group": {
        "m_Id": ""
    },
    "m_Name": "Invert Colors",
    "m_DrawState": {
        "m_Expanded": true,
        "m_Position": {
            "serializedVersion": "2",
            "x": 1630.4000244140625,
            "y": 1825.60009765625,
            "width": 208.0,
            "height": 391.2000732421875
        }
    },
    "m_Slots": [
        {
            "m_Id": "1504c99f047e459cba20750e33be2d5f"
        },
        {
            "m_Id": "e90cac9c4ef74116add01d6f9850f175"
        }
    ],
    "synonyms": [],
    "m_Precision": 0,
    "m_PreviewExpanded": true,
    "m_PreviewMode": 0,
    "m_CustomColors": {
        "m_SerializableColors": []
    },
    "m_RedChannel": false,
    "m_GreenChannel": false,
    "m_BlueChannel": false
}

{
    "m_SGVersion": 0,
    "m_Type": "UnityEditor.ShaderGraph.SmoothstepNode",
    "m_ObjectId": "5c9190c46a6148b1ac82945f2a8dc875",
    "m_Group": {
        "m_Id": ""
    },
    "m_Name": "Smoothstep",
    "m_DrawState": {
        "m_Expanded": true,
        "m_Position": {
            "serializedVersion": "2",
            "x": 1236.800048828125,
            "y": 1337.5999755859375,
            "width": 208.0,
            "height": 326.4000244140625
        }
    },
    "m_Slots": [
        {
            "m_Id": "dfe94f406bb34c41b3613d524547685a"
        },
        {
            "m_Id": "3f2b7e55356d4c808acdf30683b3526b"
        },
        {
            "m_Id": "85c13cbf6ecd43569938d1f7b9ee7305"
        },
        {
            "m_Id": "3c37b6ba20634b00a08acd76d625c55f"
        }
    ],
    "synonyms": [],
    "m_Precision": 0,
    "m_PreviewExpanded": true,
    "m_PreviewMode": 0,
    "m_CustomColors": {
        "m_SerializableColors": []
    }
}

{
    "m_SGVersion": 0,
    "m_Type": "UnityEditor.ShaderGraph.ColorRGBMaterialSlot",
    "m_ObjectId": "5d94bdf93fcb4b6794a37cfe2278300b",
    "m_Id": 0,
    "m_DisplayName": "Base Color",
    "m_SlotType": 0,
    "m_Hidden": false,
    "m_ShaderOutputName": "BaseColor",
    "m_StageCapability": 2,
    "m_Value": {
        "x": 0.5,
        "y": 0.5,
        "z": 0.5
    },
    "m_DefaultValue": {
        "x": 0.0,
        "y": 0.0,
        "z": 0.0
    },
    "m_Labels": [],
    "m_ColorMode": 0,
    "m_DefaultColor": {
        "r": 0.5,
        "g": 0.5,
        "b": 0.5,
        "a": 1.0
    }
}

{
    "m_SGVersion": 0,
    "m_Type": "UnityEditor.ShaderGraph.Vector1MaterialSlot",
    "m_ObjectId": "5def7442566d4621abf04d4a83526100",
    "m_Id": 5,
    "m_DisplayName": "G",
    "m_SlotType": 1,
    "m_Hidden": false,
    "m_ShaderOutputName": "G",
    "m_StageCapability": 2,
    "m_Value": 0.0,
    "m_DefaultValue": 0.0,
    "m_Labels": []
}

{
    "m_SGVersion": 0,
    "m_Type": "UnityEditor.ShaderGraph.BlockNode",
    "m_ObjectId": "5e544a5576154b34b891e075006cfb30",
    "m_Group": {
        "m_Id": ""
    },
    "m_Name": "SurfaceDescription.Metallic",
    "m_DrawState": {
        "m_Expanded": true,
        "m_Position": {
            "serializedVersion": "2",
            "x": 0.0,
            "y": 0.0,
            "width": 0.0,
            "height": 0.0
        }
    },
    "m_Slots": [
        {
            "m_Id": "f619d63920414dc4ba60e2f48ee43a7a"
        }
    ],
    "synonyms": [],
    "m_Precision": 0,
    "m_PreviewExpanded": true,
    "m_PreviewMode": 0,
    "m_CustomColors": {
        "m_SerializableColors": []
    },
    "m_SerializedDescriptor": "SurfaceDescription.Metallic"
}

{
    "m_SGVersion": 0,
    "m_Type": "UnityEditor.ShaderGraph.Texture2DInputMaterialSlot",
    "m_ObjectId": "5f672da3acfe47a9b4dbb5ae5b453c44",
    "m_Id": 1,
    "m_DisplayName": "Texture",
    "m_SlotType": 0,
    "m_Hidden": false,
    "m_ShaderOutputName": "Texture",
    "m_StageCapability": 3,
    "m_BareResource": false,
    "m_Texture": {
        "m_SerializedTexture": "{\"texture\":{\"instanceID\":0}}",
        "m_Guid": ""
    },
    "m_DefaultType": 0
}

{
    "m_SGVersion": 0,
    "m_Type": "UnityEditor.ShaderGraph.SampleTexture2DNode",
    "m_ObjectId": "60094c3e6eda453ab80d052b15c05766",
    "m_Group": {
        "m_Id": ""
    },
    "m_Name": "Sample Texture 2D",
    "m_DrawState": {
        "m_Expanded": true,
        "m_Position": {
            "serializedVersion": "2",
            "x": 496.0,
            "y": 651.199951171875,
            "width": 186.4000244140625,
            "height": 250.3999481201172
        }
    },
    "m_Slots": [
        {
            "m_Id": "24be38444d0244378e2645581e0ff991"
        },
        {
            "m_Id": "95c09fb6a9dd450ba668a32a0ce27d30"
        },
        {
            "m_Id": "6f9432aa85cd4951b3eb75a09914611b"
        },
        {
            "m_Id": "615ba396b642498288c026dbcb7149eb"
        },
        {
            "m_Id": "69b2a476a1614efe88456cc52abc2545"
        },
        {
            "m_Id": "66a1268e9e8e4b58a2ddbe1bb860b1d1"
        },
        {
            "m_Id": "b8334635eebb458b85b2c86085aff8b9"
        },
        {
            "m_Id": "b3efb461417744c1a466eb93b407df00"
        }
    ],
    "synonyms": [],
    "m_Precision": 0,
    "m_PreviewExpanded": false,
    "m_PreviewMode": 0,
    "m_CustomColors": {
        "m_SerializableColors": []
    },
    "m_TextureType": 0,
    "m_NormalMapSpace": 0
}

{
    "m_SGVersion": 0,
    "m_Type": "UnityEditor.ShaderGraph.Vector1MaterialSlot",
    "m_ObjectId": "615ba396b642498288c026dbcb7149eb",
    "m_Id": 6,
    "m_DisplayName": "B",
    "m_SlotType": 1,
    "m_Hidden": false,
    "m_ShaderOutputName": "B",
    "m_StageCapability": 2,
    "m_Value": 0.0,
    "m_DefaultValue": 0.0,
    "m_Labels": []
}

{
    "m_SGVersion": 0,
    "m_Type": "UnityEditor.ShaderGraph.Texture2DInputMaterialSlot",
    "m_ObjectId": "63596c856de640dbbe16b6353c167093",
    "m_Id": 1,
    "m_DisplayName": "Texture",
    "m_SlotType": 0,
    "m_Hidden": false,
    "m_ShaderOutputName": "Texture",
    "m_StageCapability": 3,
    "m_BareResource": false,
    "m_Texture": {
        "m_SerializedTexture": "{\"texture\":{\"instanceID\":0}}",
        "m_Guid": ""
    },
    "m_DefaultType": 0
}

{
    "m_SGVersion": 0,
    "m_Type": "UnityEditor.ShaderGraph.Texture2DInputMaterialSlot",
    "m_ObjectId": "66a1268e9e8e4b58a2ddbe1bb860b1d1",
    "m_Id": 1,
    "m_DisplayName": "Texture",
    "m_SlotType": 0,
    "m_Hidden": false,
    "m_ShaderOutputName": "Texture",
    "m_StageCapability": 3,
    "m_BareResource": false,
    "m_Texture": {
        "m_SerializedTexture": "{\"texture\":{\"instanceID\":0}}",
        "m_Guid": ""
    },
    "m_DefaultType": 0
}

{
    "m_SGVersion": 0,
    "m_Type": "UnityEditor.ShaderGraph.DynamicVectorMaterialSlot",
    "m_ObjectId": "66c26c7bee4d4006888008c0e2adeeac",
    "m_Id": 3,
    "m_DisplayName": "Out",
    "m_SlotType": 1,
    "m_Hidden": false,
    "m_ShaderOutputName": "Out",
    "m_StageCapability": 3,
    "m_Value": {
        "x": 0.0,
        "y": 0.0,
        "z": 0.0,
        "w": 0.0
    },
    "m_DefaultValue": {
        "x": 0.0,
        "y": 0.0,
        "z": 0.0,
        "w": 0.0
    }
}

{
    "m_SGVersion": 0,
    "m_Type": "UnityEditor.ShaderGraph.Vector1MaterialSlot",
    "m_ObjectId": "69b2a476a1614efe88456cc52abc2545",
    "m_Id": 7,
    "m_DisplayName": "A",
    "m_SlotType": 1,
    "m_Hidden": false,
    "m_ShaderOutputName": "A",
    "m_StageCapability": 2,
    "m_Value": 0.0,
    "m_DefaultValue": 0.0,
    "m_Labels": []
}

{
    "m_SGVersion": 0,
    "m_Type": "UnityEditor.ShaderGraph.Vector1MaterialSlot",
    "m_ObjectId": "6c08a4970471481b96857c9213da6f20",
    "m_Id": 4,
    "m_DisplayName": "R",
    "m_SlotType": 1,
    "m_Hidden": false,
    "m_ShaderOutputName": "R",
    "m_StageCapability": 2,
    "m_Value": 0.0,
    "m_DefaultValue": 0.0,
    "m_Labels": []
}

{
    "m_SGVersion": 0,
    "m_Type": "UnityEditor.ShaderGraph.PropertyNode",
    "m_ObjectId": "6ca12267c3e5476286cfa4f2787a9285",
    "m_Group": {
        "m_Id": ""
    },
    "m_Name": "Property",
    "m_DrawState": {
        "m_Expanded": true,
        "m_Position": {
            "serializedVersion": "2",
            "x": 249.59999084472657,
            "y": 132.8000030517578,
            "width": 124.79998016357422,
            "height": 34.399993896484378
        }
    },
    "m_Slots": [
        {
            "m_Id": "d6030b846b0b4eb1b7edf48db59f3f84"
        }
    ],
    "synonyms": [],
    "m_Precision": 0,
    "m_PreviewExpanded": true,
    "m_PreviewMode": 0,
    "m_CustomColors": {
        "m_SerializableColors": []
    },
    "m_Property": {
        "m_Id": "36ce2576a5f94344ac5ea50251e82992"
    }
}

{
    "m_SGVersion": 0,
    "m_Type": "UnityEditor.ShaderGraph.BlockNode",
    "m_ObjectId": "6d51b1d258994bc6885977e979bd3938",
    "m_Group": {
        "m_Id": ""
    },
    "m_Name": "SurfaceDescription.NormalOS",
    "m_DrawState": {
        "m_Expanded": true,
        "m_Position": {
            "serializedVersion": "2",
            "x": 0.0,
            "y": 0.0,
            "width": 0.0,
            "height": 0.0
        }
    },
    "m_Slots": [
        {
            "m_Id": "83974dfc141f4390af6b4116c94c6268"
        }
    ],
    "synonyms": [],
    "m_Precision": 0,
    "m_PreviewExpanded": true,
    "m_PreviewMode": 0,
    "m_CustomColors": {
        "m_SerializableColors": []
    },
    "m_SerializedDescriptor": "SurfaceDescription.NormalOS"
}

{
    "m_SGVersion": 0,
    "m_Type": "UnityEditor.ShaderGraph.Vector1MaterialSlot",
    "m_ObjectId": "6f9432aa85cd4951b3eb75a09914611b",
    "m_Id": 5,
    "m_DisplayName": "G",
    "m_SlotType": 1,
    "m_Hidden": false,
    "m_ShaderOutputName": "G",
    "m_StageCapability": 2,
    "m_Value": 0.0,
    "m_DefaultValue": 0.0,
    "m_Labels": []
}

{
    "m_SGVersion": 0,
    "m_Type": "UnityEditor.ShaderGraph.BlockNode",
    "m_ObjectId": "727b7f445cbe4154b1a22ed213fe2b70",
    "m_Group": {
        "m_Id": ""
    },
    "m_Name": "SurfaceDescription.AlphaClipThreshold",
    "m_DrawState": {
        "m_Expanded": true,
        "m_Position": {
            "serializedVersion": "2",
            "x": 0.0,
            "y": 0.0,
            "width": 0.0,
            "height": 0.0
        }
    },
    "m_Slots": [
        {
            "m_Id": "7db187d58e414dc3a83cd8e161a612b0"
        }
    ],
    "synonyms": [],
    "m_Precision": 0,
    "m_PreviewExpanded": true,
    "m_PreviewMode": 0,
    "m_CustomColors": {
        "m_SerializableColors": []
    },
    "m_SerializedDescriptor": "SurfaceDescription.AlphaClipThreshold"
}

{
    "m_SGVersion": 0,
    "m_Type": "UnityEditor.ShaderGraph.AddNode",
    "m_ObjectId": "75282b20252b44fa9e70b9be2fab53c3",
    "m_Group": {
        "m_Id": ""
    },
    "m_Name": "Add",
    "m_DrawState": {
        "m_Expanded": true,
        "m_Position": {
            "serializedVersion": "2",
            "x": 2576.0,
            "y": 1161.5999755859375,
            "width": 208.00001525878907,
            "height": 302.4000244140625
        }
    },
    "m_Slots": [
        {
            "m_Id": "3698d4efa7c84434a284abe0fb1549f0"
        },
        {
            "m_Id": "bd24a5eb4aad4f4fab2f770bf2dc2985"
        },
        {
            "m_Id": "ea75db624f0e482e94966948657a233d"
        }
    ],
    "synonyms": [],
    "m_Precision": 0,
    "m_PreviewExpanded": true,
    "m_PreviewMode": 0,
    "m_CustomColors": {
        "m_SerializableColors": []
    }
}

{
    "m_SGVersion": 0,
    "m_Type": "UnityEditor.ShaderGraph.PropertyNode",
    "m_ObjectId": "75dd52b457b341239d7e7492a31e33b4",
    "m_Group": {
        "m_Id": ""
    },
    "m_Name": "Property",
    "m_DrawState": {
        "m_Expanded": true,
        "m_Position": {
            "serializedVersion": "2",
            "x": 442.3999938964844,
            "y": 1712.800048828125,
            "width": 132.80001831054688,
            "height": 33.5999755859375
        }
    },
    "m_Slots": [
        {
            "m_Id": "42c57bd35816423c9a798bf99b7c9adf"
        }
    ],
    "synonyms": [],
    "m_Precision": 0,
    "m_PreviewExpanded": true,
    "m_PreviewMode": 0,
    "m_CustomColors": {
        "m_SerializableColors": []
    },
    "m_Property": {
        "m_Id": "25d7e2d431e34ae2af9bd43dce30ab20"
    }
}

{
    "m_SGVersion": 0,
    "m_Type": "UnityEditor.ShaderGraph.Vector4MaterialSlot",
    "m_ObjectId": "78462d1b28514504aa8198061400d9b7",
    "m_Id": 0,
    "m_DisplayName": "Edge Color",
    "m_SlotType": 1,
    "m_Hidden": false,
    "m_ShaderOutputName": "Out",
    "m_StageCapability": 3,
    "m_Value": {
        "x": 0.0,
        "y": 0.0,
        "z": 0.0,
        "w": 0.0
    },
    "m_DefaultValue": {
        "x": 0.0,
        "y": 0.0,
        "z": 0.0,
        "w": 0.0
    },
    "m_Labels": []
}

{
    "m_SGVersion": 0,
    "m_Type": "UnityEditor.ShaderGraph.BlockNode",
    "m_ObjectId": "7be54f74530a41d1b2597047c460d742",
    "m_Group": {
        "m_Id": ""
    },
    "m_Name": "VertexDescription.Position",
    "m_DrawState": {
        "m_Expanded": true,
        "m_Position": {
            "serializedVersion": "2",
            "x": 0.0,
            "y": 0.0,
            "width": 0.0,
            "height": 0.0
        }
    },
    "m_Slots": [
        {
            "m_Id": "d4df3d70e3bf43819e4210516185f4bb"
        }
    ],
    "synonyms": [],
    "m_Precision": 0,
    "m_PreviewExpanded": true,
    "m_PreviewMode": 0,
    "m_CustomColors": {
        "m_SerializableColors": []
    },
    "m_SerializedDescriptor": "VertexDescription.Position"
}

{
    "m_SGVersion": 0,
    "m_Type": "UnityEditor.ShaderGraph.Vector1MaterialSlot",
    "m_ObjectId": "7db0c1dae4fd4e129bb083b80790a674",
    "m_Id": 0,
    "m_DisplayName": "Edge Spread",
    "m_SlotType": 1,
    "m_Hidden": false,
    "m_ShaderOutputName": "Out",
    "m_StageCapability": 3,
    "m_Value": 0.0,
    "m_DefaultValue": 0.0,
    "m_Labels": []
}

{
    "m_SGVersion": 0,
    "m_Type": "UnityEditor.ShaderGraph.Vector1MaterialSlot",
    "m_ObjectId": "7db187d58e414dc3a83cd8e161a612b0",
    "m_Id": 0,
    "m_DisplayName": "Alpha Clip Threshold",
    "m_SlotType": 0,
    "m_Hidden": false,
    "m_ShaderOutputName": "AlphaClipThreshold",
    "m_StageCapability": 2,
    "m_Value": 0.5,
    "m_DefaultValue": 0.5,
    "m_Labels": []
}

{
    "m_SGVersion": 0,
    "m_Type": "UnityEditor.ShaderGraph.DynamicVectorMaterialSlot",
    "m_ObjectId": "7e4fdb6431de438f88cc178a7cd76c0d",
    "m_Id": 2,
    "m_DisplayName": "Out",
    "m_SlotType": 1,
    "m_Hidden": false,
    "m_ShaderOutputName": "Out",
    "m_StageCapability": 3,
    "m_Value": {
        "x": 0.0,
        "y": 0.0,
        "z": 0.0,
        "w": 0.0
    },
    "m_DefaultValue": {
        "x": 0.0,
        "y": 0.0,
        "z": 0.0,
        "w": 0.0
    }
}

{
    "m_SGVersion": 0,
    "m_Type": "UnityEditor.ShaderGraph.Vector2MaterialSlot",
    "m_ObjectId": "7eca6e50b18449e78cea58e4589e03e2",
    "m_Id": 2,
    "m_DisplayName": "Out Min Max",
    "m_SlotType": 0,
    "m_Hidden": false,
    "m_ShaderOutputName": "OutMinMax",
    "m_StageCapability": 3,
    "m_Value": {
        "x": 0.0,
        "y": 0.5
    },
    "m_DefaultValue": {
        "x": 0.0,
        "y": 0.0
    },
    "m_Labels": []
}

{
    "m_SGVersion": 0,
    "m_Type": "UnityEditor.ShaderGraph.OneMinusNode",
    "m_ObjectId": "7f0877e6f3604fea97da99cacfe8d304",
    "m_Group": {
        "m_Id": ""
    },
    "m_Name": "One Minus",
    "m_DrawState": {
        "m_Expanded": true,
        "m_Position": {
            "serializedVersion": "2",
            "x": 1546.4000244140625,
            "y": 1336.800048828125,
            "width": 208.0,
            "height": 278.39990234375
        }
    },
    "m_Slots": [
        {
            "m_Id": "d0cc8d4540e24c598fbf2a644329e272"
        },
        {
            "m_Id": "4ae8df3257c9410c921c135d1bf8ac25"
        }
    ],
    "synonyms": [],
    "m_Precision": 0,
    "m_PreviewExpanded": true,
    "m_PreviewMode": 0,
    "m_CustomColors": {
        "m_SerializableColors": []
    }
}

{
    "m_SGVersion": 0,
    "m_Type": "UnityEditor.ShaderGraph.BlockNode",
    "m_ObjectId": "8045eab5d4ba4261b6d37a2a333e36b6",
    "m_Group": {
        "m_Id": ""
    },
    "m_Name": "SurfaceDescription.Alpha",
    "m_DrawState": {
        "m_Expanded": true,
        "m_Position": {
            "serializedVersion": "2",
            "x": 0.0,
            "y": 0.0,
            "width": 0.0,
            "height": 0.0
        }
    },
    "m_Slots": [
        {
            "m_Id": "072484995fc84585b8a79c0ed1b71841"
        }
    ],
    "synonyms": [],
    "m_Precision": 0,
    "m_PreviewExpanded": true,
    "m_PreviewMode": 0,
    "m_CustomColors": {
        "m_SerializableColors": []
    },
    "m_SerializedDescriptor": "SurfaceDescription.Alpha"
}

{
    "m_SGVersion": 0,
    "m_Type": "UnityEditor.ShaderGraph.Vector1MaterialSlot",
    "m_ObjectId": "829f218198374d48b14b601ba5b210b0",
    "m_Id": 7,
    "m_DisplayName": "A",
    "m_SlotType": 1,
    "m_Hidden": false,
    "m_ShaderOutputName": "A",
    "m_StageCapability": 2,
    "m_Value": 0.0,
    "m_DefaultValue": 0.0,
    "m_Labels": []
}

{
    "m_SGVersion": 0,
    "m_Type": "UnityEditor.ShaderGraph.Vector1MaterialSlot",
    "m_ObjectId": "82dc9540664c448db36b8d43042bdf63",
    "m_Id": 6,
    "m_DisplayName": "B",
    "m_SlotType": 1,
    "m_Hidden": false,
    "m_ShaderOutputName": "B",
    "m_StageCapability": 2,
    "m_Value": 0.0,
    "m_DefaultValue": 0.0,
    "m_Labels": []
}

{
    "m_SGVersion": 0,
    "m_Type": "UnityEditor.Rendering.HighDefinition.ShaderGraph.LightingData",
    "m_ObjectId": "83407ca118f54ffc823c85cb931138ba",
    "m_NormalDropOffSpace": 1,
    "m_BlendPreserveSpecular": true,
    "m_ReceiveDecals": true,
    "m_ReceiveSSR": true,
    "m_ReceiveSSRTransparent": false,
    "m_SpecularAA": false,
    "m_SpecularOcclusionMode": 0,
    "m_OverrideBakedGI": false
}

{
    "m_SGVersion": 0,
    "m_Type": "UnityEditor.ShaderGraph.NormalMaterialSlot",
    "m_ObjectId": "83974dfc141f4390af6b4116c94c6268",
    "m_Id": 0,
    "m_DisplayName": "Normal (Object Space)",
    "m_SlotType": 0,
    "m_Hidden": false,
    "m_ShaderOutputName": "NormalOS",
    "m_StageCapability": 2,
    "m_Value": {
        "x": 0.0,
        "y": 0.0,
        "z": 0.0
    },
    "m_DefaultValue": {
        "x": 0.0,
        "y": 0.0,
        "z": 0.0
    },
    "m_Labels": [],
    "m_Space": 0
}

{
    "m_SGVersion": 0,
    "m_Type": "UnityEditor.ShaderGraph.SamplerStateMaterialSlot",
    "m_ObjectId": "851965b2fef0437e9db64e3ef298405f",
    "m_Id": 3,
    "m_DisplayName": "Sampler",
    "m_SlotType": 0,
    "m_Hidden": false,
    "m_ShaderOutputName": "Sampler",
    "m_StageCapability": 3,
    "m_BareResource": false
}

{
    "m_SGVersion": 0,
    "m_Type": "UnityEditor.Rendering.HighDefinition.ShaderGraph.BuiltinData",
    "m_ObjectId": "851ce658df4b4025b53c169e95b00db3",
    "m_Distortion": false,
    "m_DistortionMode": 0,
    "m_DistortionDepthTest": true,
    "m_AddPrecomputedVelocity": false,
    "m_TransparentWritesMotionVec": false,
    "m_AlphaToMask": true,
    "m_DepthOffset": false,
    "m_TransparencyFog": true,
    "m_AlphaTestShadow": true,
    "m_BackThenFrontRendering": false,
    "m_TransparentDepthPrepass": true,
    "m_TransparentDepthPostpass": false,
    "m_SupportLodCrossFade": false
}

{
    "m_SGVersion": 0,
    "m_Type": "UnityEditor.ShaderGraph.DynamicVectorMaterialSlot",
    "m_ObjectId": "85c13cbf6ecd43569938d1f7b9ee7305",
    "m_Id": 2,
    "m_DisplayName": "In",
    "m_SlotType": 0,
    "m_Hidden": false,
    "m_ShaderOutputName": "In",
    "m_StageCapability": 3,
    "m_Value": {
        "x": 0.0,
        "y": 0.0,
        "z": 0.0,
        "w": 0.0
    },
    "m_DefaultValue": {
        "x": 0.0,
        "y": 0.0,
        "z": 0.0,
        "w": 0.0
    }
}

{
    "m_SGVersion": 0,
    "m_Type": "UnityEditor.ShaderGraph.Vector3MaterialSlot",
    "m_ObjectId": "864d7766a2724e0aae394ecd999a4825",
    "m_Id": 0,
    "m_DisplayName": "Out",
    "m_SlotType": 1,
    "m_Hidden": false,
    "m_ShaderOutputName": "Out",
    "m_StageCapability": 3,
    "m_Value": {
        "x": 0.0,
        "y": 0.0,
        "z": 0.0
    },
    "m_DefaultValue": {
        "x": 0.0,
        "y": 0.0,
        "z": 0.0
    },
    "m_Labels": []
}

{
    "m_SGVersion": 0,
    "m_Type": "UnityEditor.ShaderGraph.SampleTexture2DNode",
    "m_ObjectId": "86f21547474b4db2a94415c86b68a2fc",
    "m_Group": {
        "m_Id": ""
    },
    "m_Name": "Sample Texture 2D",
    "m_DrawState": {
        "m_Expanded": true,
        "m_Position": {
            "serializedVersion": "2",
            "x": 500.79998779296877,
            "y": 100.0,
            "width": 187.20001220703126,
            "height": 250.3999786376953
        }
    },
    "m_Slots": [
        {
            "m_Id": "3eaf810ef6d34f4d8e460676ebb34d7d"
        },
        {
            "m_Id": "6c08a4970471481b96857c9213da6f20"
        },
        {
            "m_Id": "5def7442566d4621abf04d4a83526100"
        },
        {
            "m_Id": "9d88f78a4cb6414594b21365fc82efa0"
        },
        {
            "m_Id": "de618fe5b2d749babb446982484ce8b8"
        },
        {
            "m_Id": "5993e9734a544079abb4b6078655a14f"
        },
        {
            "m_Id": "1eceeac79656400cb25c49e1b442f532"
        },
        {
            "m_Id": "b1bfb6a324e04abb9701205d3442eea5"
        }
    ],
    "synonyms": [],
    "m_Precision": 0,
    "m_PreviewExpanded": false,
    "m_PreviewMode": 0,
    "m_CustomColors": {
        "m_SerializableColors": []
    },
    "m_TextureType": 1,
    "m_NormalMapSpace": 0
}

{
    "m_SGVersion": 0,
    "m_Type": "UnityEditor.ShaderGraph.Vector1MaterialSlot",
    "m_ObjectId": "877b08d684374673899c8c6da910768a",
    "m_Id": 2,
    "m_DisplayName": "G",
    "m_SlotType": 1,
    "m_Hidden": false,
    "m_ShaderOutputName": "G",
    "m_StageCapability": 3,
    "m_Value": 0.0,
    "m_DefaultValue": 0.0,
    "m_Labels": []
}

{
    "m_SGVersion": 0,
    "m_Type": "UnityEditor.ShaderGraph.BlockNode",
    "m_ObjectId": "88137b6abf6a46858fcfa6a1808d4473",
    "m_Group": {
        "m_Id": ""
    },
    "m_Name": "SurfaceDescription.BaseColor",
    "m_DrawState": {
        "m_Expanded": true,
        "m_Position": {
            "serializedVersion": "2",
            "x": 0.0,
            "y": 0.0,
            "width": 0.0,
            "height": 0.0
        }
    },
    "m_Slots": [
        {
            "m_Id": "5d94bdf93fcb4b6794a37cfe2278300b"
        }
    ],
    "synonyms": [],
    "m_Precision": 0,
    "m_PreviewExpanded": true,
    "m_PreviewMode": 0,
    "m_CustomColors": {
        "m_SerializableColors": []
    },
    "m_SerializedDescriptor": "SurfaceDescription.BaseColor"
}

{
    "m_SGVersion": 0,
    "m_Type": "UnityEditor.ShaderGraph.NormalMaterialSlot",
    "m_ObjectId": "895c8724b6b4403bad13ac957261f2f7",
    "m_Id": 0,
    "m_DisplayName": "Normal",
    "m_SlotType": 0,
    "m_Hidden": false,
    "m_ShaderOutputName": "Normal",
    "m_StageCapability": 1,
    "m_Value": {
        "x": 0.0,
        "y": 0.0,
        "z": 0.0
    },
    "m_DefaultValue": {
        "x": 0.0,
        "y": 0.0,
        "z": 0.0
    },
    "m_Labels": [],
    "m_Space": 0
}

{
    "m_SGVersion": 0,
    "m_Type": "UnityEditor.ShaderGraph.Internal.Texture2DShaderProperty",
    "m_ObjectId": "8ac28e7d934a4e26a76f4eaa73fb4559",
    "m_Guid": {
        "m_GuidSerialized": "0f06cd65-c254-4ad8-9a3f-9e1c025f3a65"
    },
    "m_Name": "Emission",
    "m_DefaultRefNameVersion": 1,
    "m_RefNameGeneratedByDisplayName": "Emission",
    "m_DefaultReferenceName": "_Emission",
    "m_OverrideReferenceName": "",
    "m_GeneratePropertyBlock": true,
    "m_Precision": 0,
    "overrideHLSLDeclaration": false,
    "hlslDeclarationOverride": 0,
    "m_Hidden": false,
    "m_Value": {
        "m_SerializedTexture": "{\"texture\":{\"instanceID\":0}}",
        "m_Guid": ""
    },
    "m_Modifiable": true,
    "m_DefaultType": 0
}

{
    "m_SGVersion": 0,
    "m_Type": "UnityEditor.ShaderGraph.DynamicVectorMaterialSlot",
    "m_ObjectId": "8dfc5fff30de4889af4d1e56dbd56ebf",
    "m_Id": 1,
    "m_DisplayName": "B",
    "m_SlotType": 0,
    "m_Hidden": false,
    "m_ShaderOutputName": "B",
    "m_StageCapability": 3,
    "m_Value": {
        "x": 0.0,
        "y": 0.0,
        "z": 0.0,
        "w": 0.0
    },
    "m_DefaultValue": {
        "x": 0.0,
        "y": 0.0,
        "z": 0.0,
        "w": 0.0
    }
}

{
    "m_SGVersion": 0,
    "m_Type": "UnityEditor.ShaderGraph.AddNode",
    "m_ObjectId": "8f82bf7a63a14b968e9c7b8bf8057a78",
    "m_Group": {
        "m_Id": ""
    },
    "m_Name": "Add",
    "m_DrawState": {
        "m_Expanded": true,
        "m_Position": {
            "serializedVersion": "2",
            "x": 893.5999145507813,
            "y": 1078.4000244140625,
            "width": 208.0,
            "height": 301.5999450683594
        }
    },
    "m_Slots": [
        {
            "m_Id": "c578863323cc477283995fec1ade3804"
        },
        {
            "m_Id": "8dfc5fff30de4889af4d1e56dbd56ebf"
        },
        {
            "m_Id": "7e4fdb6431de438f88cc178a7cd76c0d"
        }
    ],
    "synonyms": [],
    "m_Precision": 0,
    "m_PreviewExpanded": true,
    "m_PreviewMode": 0,
    "m_CustomColors": {
        "m_SerializableColors": []
    }
}

{
    "m_SGVersion": 0,
    "m_Type": "UnityEditor.ShaderGraph.BlockNode",
    "m_ObjectId": "92a278fc2c794eaeb5c9ecbe4b56fc55",
    "m_Group": {
        "m_Id": ""
    },
    "m_Name": "SurfaceDescription.BentNormal",
    "m_DrawState": {
        "m_Expanded": true,
        "m_Position": {
            "serializedVersion": "2",
            "x": 0.0,
            "y": 0.0,
            "width": 0.0,
            "height": 0.0
        }
    },
    "m_Slots": [
        {
            "m_Id": "2b1f69ce46234615a734de3af2d82afb"
        }
    ],
    "synonyms": [],
    "m_Precision": 0,
    "m_PreviewExpanded": true,
    "m_PreviewMode": 0,
    "m_CustomColors": {
        "m_SerializableColors": []
    },
    "m_SerializedDescriptor": "SurfaceDescription.BentNormal"
}

{
    "m_SGVersion": 0,
    "m_Type": "UnityEditor.ShaderGraph.Vector1MaterialSlot",
    "m_ObjectId": "92f36287a61b4708b2c4b99159fa6e29",
    "m_Id": 0,
    "m_DisplayName": "Time",
    "m_SlotType": 1,
    "m_Hidden": false,
    "m_ShaderOutputName": "Time",
    "m_StageCapability": 3,
    "m_Value": 0.0,
    "m_DefaultValue": 0.0,
    "m_Labels": []
}

{
    "m_SGVersion": 0,
    "m_Type": "UnityEditor.ShaderGraph.Vector1MaterialSlot",
    "m_ObjectId": "95c09fb6a9dd450ba668a32a0ce27d30",
    "m_Id": 4,
    "m_DisplayName": "R",
    "m_SlotType": 1,
    "m_Hidden": false,
    "m_ShaderOutputName": "R",
    "m_StageCapability": 2,
    "m_Value": 0.0,
    "m_DefaultValue": 0.0,
    "m_Labels": []
}

{
    "m_SGVersion": 0,
    "m_Type": "UnityEditor.ShaderGraph.Vector1MaterialSlot",
    "m_ObjectId": "98ab9ca6d0964c8fa2aac73d0353f085",
    "m_Id": 1,
    "m_DisplayName": "R",
    "m_SlotType": 1,
    "m_Hidden": false,
    "m_ShaderOutputName": "R",
    "m_StageCapability": 3,
    "m_Value": 0.0,
    "m_DefaultValue": 0.0,
    "m_Labels": []
}

{
    "m_SGVersion": 0,
    "m_Type": "UnityEditor.ShaderGraph.Vector1MaterialSlot",
    "m_ObjectId": "9910a5be409f401d981446e3ff4055f0",
    "m_Id": 4,
    "m_DisplayName": "R",
    "m_SlotType": 1,
    "m_Hidden": false,
    "m_ShaderOutputName": "R",
    "m_StageCapability": 2,
    "m_Value": 0.0,
    "m_DefaultValue": 0.0,
    "m_Labels": []
}

{
    "m_SGVersion": 0,
    "m_Type": "UnityEditor.ShaderGraph.UVMaterialSlot",
    "m_ObjectId": "9d76b39a93194d1e8a83c4d96a21e00a",
    "m_Id": 2,
    "m_DisplayName": "UV",
    "m_SlotType": 0,
    "m_Hidden": false,
    "m_ShaderOutputName": "UV",
    "m_StageCapability": 3,
    "m_Value": {
        "x": 0.0,
        "y": 0.0
    },
    "m_DefaultValue": {
        "x": 0.0,
        "y": 0.0
    },
    "m_Labels": [],
    "m_Channel": 0
}

{
    "m_SGVersion": 0,
    "m_Type": "UnityEditor.ShaderGraph.Vector1MaterialSlot",
    "m_ObjectId": "9d88f78a4cb6414594b21365fc82efa0",
    "m_Id": 6,
    "m_DisplayName": "B",
    "m_SlotType": 1,
    "m_Hidden": false,
    "m_ShaderOutputName": "B",
    "m_StageCapability": 2,
    "m_Value": 0.0,
    "m_DefaultValue": 0.0,
    "m_Labels": []
}

{
    "m_SGVersion": 0,
    "m_Type": "UnityEditor.ShaderGraph.PropertyNode",
    "m_ObjectId": "a2d749a8a3644642985662c380dca5c5",
    "m_Group": {
        "m_Id": ""
    },
    "m_Name": "Property",
    "m_DrawState": {
        "m_Expanded": true,
        "m_Position": {
            "serializedVersion": "2",
            "x": 251.19998168945313,
            "y": -134.39996337890626,
            "width": 123.19999694824219,
            "height": 34.400001525878909
        }
    },
    "m_Slots": [
        {
            "m_Id": "accbc94bb2564157834415fd739f7c4d"
        }
    ],
    "synonyms": [],
    "m_Precision": 0,
    "m_PreviewExpanded": true,
    "m_PreviewMode": 0,
    "m_CustomColors": {
        "m_SerializableColors": []
    },
    "m_Property": {
        "m_Id": "3f63a3e9e7d14721b5c7a45a678d957c"
    }
}

{
    "m_SGVersion": 0,
    "m_Type": "UnityEditor.ShaderGraph.Vector1MaterialSlot",
    "m_ObjectId": "a7bd41ee6c5946ecbe35401e81050616",
    "m_Id": 0,
    "m_DisplayName": "Alpha Clip Threshold Shadow",
    "m_SlotType": 0,
    "m_Hidden": false,
    "m_ShaderOutputName": "AlphaClipThresholdShadow",
    "m_StageCapability": 2,
    "m_Value": 0.5,
    "m_DefaultValue": 0.5,
    "m_Labels": []
}

{
    "m_SGVersion": 0,
    "m_Type": "UnityEditor.ShaderGraph.Internal.Texture2DShaderProperty",
    "m_ObjectId": "a97a1718599d458691626ed9d9dda637",
    "m_Guid": {
        "m_GuidSerialized": "c70c8fd2-c4fe-47e8-92e6-40856f9dd734"
    },
    "m_Name": "Metallic",
    "m_DefaultRefNameVersion": 1,
    "m_RefNameGeneratedByDisplayName": "Metallic",
    "m_DefaultReferenceName": "Metallic",
    "m_OverrideReferenceName": "",
    "m_GeneratePropertyBlock": true,
    "m_Precision": 0,
    "overrideHLSLDeclaration": false,
    "hlslDeclarationOverride": 0,
    "m_Hidden": false,
    "m_Value": {
        "m_SerializedTexture": "{\"texture\":{\"instanceID\":0}}",
        "m_Guid": ""
    },
    "m_Modifiable": true,
    "m_DefaultType": 0
}

{
    "m_SGVersion": 0,
    "m_Type": "UnityEditor.ShaderGraph.PropertyNode",
    "m_ObjectId": "aba2ba5df4854107afb7dc495b411fcb",
    "m_Group": {
        "m_Id": ""
    },
    "m_Name": "Property",
    "m_DrawState": {
        "m_Expanded": true,
        "m_Position": {
            "serializedVersion": "2",
            "x": 172.79998779296876,
            "y": 1007.2000122070313,
            "width": 144.8000030517578,
            "height": 34.4000244140625
        }
    },
    "m_Slots": [
        {
            "m_Id": "7db0c1dae4fd4e129bb083b80790a674"
        }
    ],
    "synonyms": [],
    "m_Precision": 0,
    "m_PreviewExpanded": true,
    "m_PreviewMode": 0,
    "m_CustomColors": {
        "m_SerializableColors": []
    },
    "m_Property": {
        "m_Id": "1a0bc50cbfd6432c8514f968315547ca"
    }
}

{
    "m_SGVersion": 0,
    "m_Type": "UnityEditor.ShaderGraph.Texture2DMaterialSlot",
    "m_ObjectId": "accbc94bb2564157834415fd739f7c4d",
    "m_Id": 0,
    "m_DisplayName": "Albedo",
    "m_SlotType": 1,
    "m_Hidden": false,
    "m_ShaderOutputName": "Out",
    "m_StageCapability": 3,
    "m_BareResource": false
}

{
    "m_SGVersion": 0,
    "m_Type": "UnityEditor.ShaderGraph.DynamicVectorMaterialSlot",
    "m_ObjectId": "ad52eeaed6e44396828e0794f3fbc62e",
    "m_Id": 0,
    "m_DisplayName": "In",
    "m_SlotType": 0,
    "m_Hidden": false,
    "m_ShaderOutputName": "In",
    "m_StageCapability": 3,
    "m_Value": {
        "x": -1.0,
        "y": -1.0,
        "z": -1.0,
        "w": -1.0
    },
    "m_DefaultValue": {
        "x": 0.0,
        "y": 0.0,
        "z": 0.0,
        "w": 0.0
    }
}

{
    "m_SGVersion": 0,
    "m_Type": "UnityEditor.ShaderGraph.SamplerStateMaterialSlot",
    "m_ObjectId": "b1bfb6a324e04abb9701205d3442eea5",
    "m_Id": 3,
    "m_DisplayName": "Sampler",
    "m_SlotType": 0,
    "m_Hidden": false,
    "m_ShaderOutputName": "Sampler",
    "m_StageCapability": 3,
    "m_BareResource": false
}

{
    "m_SGVersion": 0,
    "m_Type": "UnityEditor.ShaderGraph.Vector1MaterialSlot",
    "m_ObjectId": "b2a2e6e99b3a492f8ee746937499dadc",
    "m_Id": 4,
    "m_DisplayName": "A",
    "m_SlotType": 1,
    "m_Hidden": false,
    "m_ShaderOutputName": "A",
    "m_StageCapability": 3,
    "m_Value": 0.0,
    "m_DefaultValue": 0.0,
    "m_Labels": []
}

{
    "m_SGVersion": 0,
    "m_Type": "UnityEditor.ShaderGraph.DynamicVectorMaterialSlot",
    "m_ObjectId": "b3d163ea438c4286a1a18133ea91a2c9",
    "m_Id": 1,
    "m_DisplayName": "In",
    "m_SlotType": 0,
    "m_Hidden": false,
    "m_ShaderOutputName": "In",
    "m_StageCapability": 3,
    "m_Value": {
        "x": 0.0,
        "y": 0.0,
        "z": 0.0,
        "w": 0.0
    },
    "m_DefaultValue": {
        "x": 0.0,
        "y": 0.0,
        "z": 0.0,
        "w": 0.0
    }
}

{
    "m_SGVersion": 0,
    "m_Type": "UnityEditor.ShaderGraph.SamplerStateMaterialSlot",
    "m_ObjectId": "b3efb461417744c1a466eb93b407df00",
    "m_Id": 3,
    "m_DisplayName": "Sampler",
    "m_SlotType": 0,
    "m_Hidden": false,
    "m_ShaderOutputName": "Sampler",
    "m_StageCapability": 3,
    "m_BareResource": false
}

{
    "m_SGVersion": 0,
    "m_Type": "UnityEditor.ShaderGraph.UVMaterialSlot",
    "m_ObjectId": "b8334635eebb458b85b2c86085aff8b9",
    "m_Id": 2,
    "m_DisplayName": "UV",
    "m_SlotType": 0,
    "m_Hidden": false,
    "m_ShaderOutputName": "UV",
    "m_StageCapability": 3,
    "m_Value": {
        "x": 0.0,
        "y": 0.0
    },
    "m_DefaultValue": {
        "x": 0.0,
        "y": 0.0
    },
    "m_Labels": [],
    "m_Channel": 0
}

{
    "m_SGVersion": 0,
    "m_Type": "UnityEditor.ShaderGraph.DynamicVectorMaterialSlot",
    "m_ObjectId": "bd24a5eb4aad4f4fab2f770bf2dc2985",
    "m_Id": 1,
    "m_DisplayName": "B",
    "m_SlotType": 0,
    "m_Hidden": false,
    "m_ShaderOutputName": "B",
    "m_StageCapability": 3,
    "m_Value": {
        "x": 0.0,
        "y": 0.0,
        "z": 0.0,
        "w": 0.0
    },
    "m_DefaultValue": {
        "x": 0.0,
        "y": 0.0,
        "z": 0.0,
        "w": 0.0
    }
}

{
    "m_SGVersion": 0,
    "m_Type": "UnityEditor.ShaderGraph.PropertyNode",
    "m_ObjectId": "bde14e6776c747d9a9e26779ec988f41",
    "m_Group": {
        "m_Id": ""
    },
    "m_Name": "Property",
    "m_DrawState": {
        "m_Expanded": true,
        "m_Position": {
            "serializedVersion": "2",
            "x": 227.19998168945313,
            "y": 419.20001220703127,
            "width": 136.00001525878907,
            "height": 33.5999755859375
        }
    },
    "m_Slots": [
        {
            "m_Id": "c0c4839005b44f9f98c92a953ee39214"
        }
    ],
    "synonyms": [],
    "m_Precision": 0,
    "m_PreviewExpanded": true,
    "m_PreviewMode": 0,
    "m_CustomColors": {
        "m_SerializableColors": []
    },
    "m_Property": {
        "m_Id": "8ac28e7d934a4e26a76f4eaa73fb4559"
    }
}

{
    "m_SGVersion": 0,
    "m_Type": "UnityEditor.ShaderGraph.Texture2DMaterialSlot",
    "m_ObjectId": "c0c4839005b44f9f98c92a953ee39214",
    "m_Id": 0,
    "m_DisplayName": "Emission",
    "m_SlotType": 1,
    "m_Hidden": false,
    "m_ShaderOutputName": "Out",
    "m_StageCapability": 3,
    "m_BareResource": false
}

{
    "m_SGVersion": 1,
    "m_Type": "UnityEditor.ShaderGraph.PositionNode",
    "m_ObjectId": "c2f1baad4d3147b4bd10f8331112644a",
    "m_Group": {
        "m_Id": ""
    },
    "m_Name": "Position",
    "m_DrawState": {
        "m_Expanded": true,
        "m_Position": {
            "serializedVersion": "2",
            "x": 143.20001220703126,
            "y": 1327.199951171875,
            "width": 208.00001525878907,
            "height": 314.4000244140625
        }
    },
    "m_Slots": [
        {
            "m_Id": "864d7766a2724e0aae394ecd999a4825"
        }
    ],
    "synonyms": [],
    "m_Precision": 1,
    "m_PreviewExpanded": true,
    "m_PreviewMode": 2,
    "m_CustomColors": {
        "m_SerializableColors": []
    },
    "m_Space": 0
}

{
    "m_SGVersion": 0,
    "m_Type": "UnityEditor.ShaderGraph.Vector2MaterialSlot",
    "m_ObjectId": "c31561a6788d47a6a6786e661684cc46",
    "m_Id": 1,
    "m_DisplayName": "In Min Max",
    "m_SlotType": 0,
    "m_Hidden": false,
    "m_ShaderOutputName": "InMinMax",
    "m_StageCapability": 3,
    "m_Value": {
        "x": 0.0,
        "y": 0.10000000149011612
    },
    "m_DefaultValue": {
        "x": 0.0,
        "y": 0.0
    },
    "m_Labels": []
}

{
    "m_SGVersion": 0,
    "m_Type": "UnityEditor.ShaderGraph.DynamicVectorMaterialSlot",
    "m_ObjectId": "c578863323cc477283995fec1ade3804",
    "m_Id": 0,
    "m_DisplayName": "A",
    "m_SlotType": 0,
    "m_Hidden": false,
    "m_ShaderOutputName": "A",
    "m_StageCapability": 3,
    "m_Value": {
        "x": 0.0,
        "y": 0.0,
        "z": 0.0,
        "w": 0.0
    },
    "m_DefaultValue": {
        "x": 0.0,
        "y": 0.0,
        "z": 0.0,
        "w": 0.0
    }
}

{
    "m_SGVersion": 0,
    "m_Type": "UnityEditor.ShaderGraph.DynamicVectorMaterialSlot",
    "m_ObjectId": "c65afad02ec34687930af1aa5a688705",
    "m_Id": 0,
    "m_DisplayName": "In",
    "m_SlotType": 0,
    "m_Hidden": false,
    "m_ShaderOutputName": "In",
    "m_StageCapability": 3,
    "m_Value": {
        "x": -1.0,
        "y": -1.0,
        "z": -1.0,
        "w": -1.0
    },
    "m_DefaultValue": {
        "x": 0.0,
        "y": 0.0,
        "z": 0.0,
        "w": 0.0
    }
}

{
    "m_SGVersion": 0,
    "m_Type": "UnityEditor.ShaderGraph.Vector1MaterialSlot",
    "m_ObjectId": "ca7c02b55b0d43babdea3caf3f9627a1",
    "m_Id": 7,
    "m_DisplayName": "A",
    "m_SlotType": 1,
    "m_Hidden": false,
    "m_ShaderOutputName": "A",
    "m_StageCapability": 2,
    "m_Value": 0.0,
    "m_DefaultValue": 0.0,
    "m_Labels": []
}

{
    "m_SGVersion": 0,
    "m_Type": "UnityEditor.ShaderGraph.UVMaterialSlot",
    "m_ObjectId": "cb4df7efed704d3b9278f64e48694806",
    "m_Id": 2,
    "m_DisplayName": "UV",
    "m_SlotType": 0,
    "m_Hidden": false,
    "m_ShaderOutputName": "UV",
    "m_StageCapability": 3,
    "m_Value": {
        "x": 0.0,
        "y": 0.0
    },
    "m_DefaultValue": {
        "x": 0.0,
        "y": 0.0
    },
    "m_Labels": [],
    "m_Channel": 0
}

{
    "m_SGVersion": 0,
    "m_Type": "UnityEditor.ShaderGraph.Vector1MaterialSlot",
    "m_ObjectId": "ce9964ea4286449fa08eaac46d1a313a",
    "m_Id": 6,
    "m_DisplayName": "B",
    "m_SlotType": 1,
    "m_Hidden": false,
    "m_ShaderOutputName": "B",
    "m_StageCapability": 2,
    "m_Value": 0.0,
    "m_DefaultValue": 0.0,
    "m_Labels": []
}

{
    "m_SGVersion": 0,
    "m_Type": "UnityEditor.ShaderGraph.DynamicVectorMaterialSlot",
    "m_ObjectId": "d0cc8d4540e24c598fbf2a644329e272",
    "m_Id": 0,
    "m_DisplayName": "In",
    "m_SlotType": 0,
    "m_Hidden": false,
    "m_ShaderOutputName": "In",
    "m_StageCapability": 3,
    "m_Value": {
        "x": 1.0,
        "y": 1.0,
        "z": 1.0,
        "w": 1.0
    },
    "m_DefaultValue": {
        "x": 0.0,
        "y": 0.0,
        "z": 0.0,
        "w": 0.0
    }
}

{
    "m_SGVersion": 3,
    "m_Type": "UnityEditor.ShaderGraph.Internal.ColorShaderProperty",
    "m_ObjectId": "d1223ea7bfec44788bbc75b273984137",
    "m_Guid": {
        "m_GuidSerialized": "4e149309-3765-4b80-9291-d934372e5474"
    },
    "m_Name": "Edge Color",
    "m_DefaultRefNameVersion": 1,
    "m_RefNameGeneratedByDisplayName": "Edge Color",
    "m_DefaultReferenceName": "Edge_Color",
    "m_OverrideReferenceName": "",
    "m_GeneratePropertyBlock": true,
    "m_Precision": 0,
    "overrideHLSLDeclaration": false,
    "hlslDeclarationOverride": 0,
    "m_Hidden": false,
    "m_Value": {
        "r": 1024.0,
        "g": 0.0,
        "b": 0.0,
        "a": 0.0
    },
    "m_ColorMode": 1
}

{
    "m_SGVersion": 0,
    "m_Type": "UnityEditor.ShaderGraph.DynamicVectorMaterialSlot",
    "m_ObjectId": "d2f31194697c43fe847b6344edf79b6d",
    "m_Id": 3,
    "m_DisplayName": "Out",
    "m_SlotType": 1,
    "m_Hidden": false,
    "m_ShaderOutputName": "Out",
    "m_StageCapability": 3,
    "m_Value": {
        "x": 0.0,
        "y": 0.0,
        "z": 0.0,
        "w": 0.0
    },
    "m_DefaultValue": {
        "x": 0.0,
        "y": 0.0,
        "z": 0.0,
        "w": 0.0
    }
}

{
    "m_SGVersion": 0,
    "m_Type": "UnityEditor.ShaderGraph.PositionMaterialSlot",
    "m_ObjectId": "d4df3d70e3bf43819e4210516185f4bb",
    "m_Id": 0,
    "m_DisplayName": "Position",
    "m_SlotType": 0,
    "m_Hidden": false,
    "m_ShaderOutputName": "Position",
    "m_StageCapability": 1,
    "m_Value": {
        "x": 0.0,
        "y": 0.0,
        "z": 0.0
    },
    "m_DefaultValue": {
        "x": 0.0,
        "y": 0.0,
        "z": 0.0
    },
    "m_Labels": [],
    "m_Space": 0
}

{
    "m_SGVersion": 0,
    "m_Type": "UnityEditor.ShaderGraph.Texture2DMaterialSlot",
    "m_ObjectId": "d6030b846b0b4eb1b7edf48db59f3f84",
    "m_Id": 0,
    "m_DisplayName": "Normal",
    "m_SlotType": 1,
    "m_Hidden": false,
    "m_ShaderOutputName": "Out",
    "m_StageCapability": 3,
    "m_BareResource": false
}

{
    "m_SGVersion": 0,
    "m_Type": "UnityEditor.ShaderGraph.PropertyNode",
    "m_ObjectId": "da81e991913b4261a97aca6cf4cf081a",
    "m_Group": {
        "m_Id": ""
    },
    "m_Name": "Property",
    "m_DrawState": {
        "m_Expanded": true,
        "m_Position": {
            "serializedVersion": "2",
            "x": 1837.599853515625,
            "y": 1557.5999755859375,
            "width": 138.4000244140625,
            "height": 33.5999755859375
        }
    },
    "m_Slots": [
        {
            "m_Id": "78462d1b28514504aa8198061400d9b7"
        }
    ],
    "synonyms": [],
    "m_Precision": 0,
    "m_PreviewExpanded": true,
    "m_PreviewMode": 0,
    "m_CustomColors": {
        "m_SerializableColors": []
    },
    "m_Property": {
        "m_Id": "d1223ea7bfec44788bbc75b273984137"
    }
}

{
    "m_SGVersion": 0,
    "m_Type": "UnityEditor.ShaderGraph.PropertyNode",
    "m_ObjectId": "db0985251adf48e480369ecd328b9513",
    "m_Group": {
        "m_Id": ""
    },
    "m_Name": "Property",
    "m_DrawState": {
        "m_Expanded": true,
        "m_Position": {
            "serializedVersion": "2",
            "x": 244.79998779296876,
            "y": 675.199951171875,
            "width": 127.99998474121094,
            "height": 33.5999755859375
        }
    },
    "m_Slots": [
        {
            "m_Id": "e636f8678ebd4b879c99925ecd31071b"
        }
    ],
    "synonyms": [],
    "m_Precision": 0,
    "m_PreviewExpanded": true,
    "m_PreviewMode": 0,
    "m_CustomColors": {
        "m_SerializableColors": []
    },
    "m_Property": {
        "m_Id": "a97a1718599d458691626ed9d9dda637"
    }
}

{
    "m_SGVersion": 0,
    "m_Type": "UnityEditor.ShaderGraph.Vector1MaterialSlot",
    "m_ObjectId": "dbe09cbf145749019f851142cd04e32d",
    "m_Id": 4,
    "m_DisplayName": "Smooth Delta",
    "m_SlotType": 1,
    "m_Hidden": false,
    "m_ShaderOutputName": "Smooth Delta",
    "m_StageCapability": 3,
    "m_Value": 0.0,
    "m_DefaultValue": 0.0,
    "m_Labels": []
}

{
    "m_SGVersion": 0,
    "m_Type": "UnityEditor.ShaderGraph.Vector1MaterialSlot",
    "m_ObjectId": "de618fe5b2d749babb446982484ce8b8",
    "m_Id": 7,
    "m_DisplayName": "A",
    "m_SlotType": 1,
    "m_Hidden": false,
    "m_ShaderOutputName": "A",
    "m_StageCapability": 2,
    "m_Value": 0.0,
    "m_DefaultValue": 0.0,
    "m_Labels": []
}

{
    "m_SGVersion": 0,
    "m_Type": "UnityEditor.ShaderGraph.Vector1MaterialSlot",
    "m_ObjectId": "deafba8e2ffb4361bec3cceedbcb4d97",
    "m_Id": 4,
    "m_DisplayName": "R",
    "m_SlotType": 1,
    "m_Hidden": false,
    "m_ShaderOutputName": "R",
    "m_StageCapability": 2,
    "m_Value": 0.0,
    "m_DefaultValue": 0.0,
    "m_Labels": []
}

{
    "m_SGVersion": 0,
    "m_Type": "UnityEditor.ShaderGraph.DynamicVectorMaterialSlot",
    "m_ObjectId": "dfe94f406bb34c41b3613d524547685a",
    "m_Id": 0,
    "m_DisplayName": "Edge1",
    "m_SlotType": 0,
    "m_Hidden": false,
    "m_ShaderOutputName": "Edge1",
    "m_StageCapability": 3,
    "m_Value": {
        "x": 0.0,
        "y": 0.0,
        "z": 0.0,
        "w": 0.0
    },
    "m_DefaultValue": {
        "x": 0.0,
        "y": 0.0,
        "z": 0.0,
        "w": 0.0
    }
}

{
    "m_SGVersion": 0,
    "m_Type": "UnityEditor.ShaderGraph.TangentMaterialSlot",
    "m_ObjectId": "e058ca0e55ce46a9969e48bc77c8b0f2",
    "m_Id": 0,
    "m_DisplayName": "Tangent",
    "m_SlotType": 0,
    "m_Hidden": false,
    "m_ShaderOutputName": "Tangent",
    "m_StageCapability": 1,
    "m_Value": {
        "x": 0.0,
        "y": 0.0,
        "z": 0.0
    },
    "m_DefaultValue": {
        "x": 0.0,
        "y": 0.0,
        "z": 0.0
    },
    "m_Labels": [],
    "m_Space": 0
}

{
    "m_SGVersion": 0,
    "m_Type": "UnityEditor.ShaderGraph.MultiplyNode",
    "m_ObjectId": "e23f94003ea140e687f183db07fff2cf",
    "m_Group": {
        "m_Id": ""
    },
    "m_Name": "Multiply",
    "m_DrawState": {
        "m_Expanded": true,
        "m_Position": {
            "serializedVersion": "2",
            "x": 2080.800048828125,
            "y": 1334.4000244140625,
            "width": 208.0,
            "height": 301.5999450683594
        }
    },
    "m_Slots": [
        {
            "m_Id": "2e30e7dbcbb04facbe67bdadc0902209"
        },
        {
            "m_Id": "e75df82b08bd4117b1ef8f6e1286bc3f"
        },
        {
            "m_Id": "1382cd8d95f44dc88fc2c3f2df5b6e69"
        }
    ],
    "synonyms": [],
    "m_Precision": 0,
    "m_PreviewExpanded": true,
    "m_PreviewMode": 0,
    "m_CustomColors": {
        "m_SerializableColors": []
    }
}

{
    "m_SGVersion": 0,
    "m_Type": "UnityEditor.ShaderGraph.BlockNode",
    "m_ObjectId": "e333950441be43a49f2b1c867cfbfd9a",
    "m_Group": {
        "m_Id": ""
    },
    "m_Name": "SurfaceDescription.AlphaClipThresholdShadow",
    "m_DrawState": {
        "m_Expanded": true,
        "m_Position": {
            "serializedVersion": "2",
            "x": 0.0,
            "y": 0.0,
            "width": 0.0,
            "height": 0.0
        }
    },
    "m_Slots": [
        {
            "m_Id": "a7bd41ee6c5946ecbe35401e81050616"
        }
    ],
    "synonyms": [],
    "m_Precision": 0,
    "m_PreviewExpanded": true,
    "m_PreviewMode": 0,
    "m_CustomColors": {
        "m_SerializableColors": []
    },
    "m_SerializedDescriptor": "SurfaceDescription.AlphaClipThresholdShadow"
}

{
    "m_SGVersion": 0,
    "m_Type": "UnityEditor.ShaderGraph.DynamicVectorMaterialSlot",
    "m_ObjectId": "e3c20cb4290847fdb48e783359a7a098",
    "m_Id": 0,
    "m_DisplayName": "Edge",
    "m_SlotType": 0,
    "m_Hidden": false,
    "m_ShaderOutputName": "Edge",
    "m_StageCapability": 3,
    "m_Value": {
        "x": 1.0,
        "y": 1.0,
        "z": 1.0,
        "w": 1.0
    },
    "m_DefaultValue": {
        "x": 0.0,
        "y": 0.0,
        "z": 0.0,
        "w": 0.0
    }
}

{
    "m_SGVersion": 0,
    "m_Type": "UnityEditor.ShaderGraph.SampleTexture2DNode",
    "m_ObjectId": "e48a4daa26084be69e5df1052b13866c",
    "m_Group": {
        "m_Id": ""
    },
    "m_Name": "Sample Texture 2D",
    "m_DrawState": {
        "m_Expanded": true,
        "m_Position": {
            "serializedVersion": "2",
            "x": 504.0,
            "y": 376.7999572753906,
            "width": 186.4000244140625,
            "height": 250.4000244140625
        }
    },
    "m_Slots": [
        {
            "m_Id": "45ce54766ba045408d6a6ca7f2503f70"
        },
        {
            "m_Id": "deafba8e2ffb4361bec3cceedbcb4d97"
        },
        {
            "m_Id": "11de24cfb07f404b86f08b043d7434cd"
        },
        {
            "m_Id": "ce9964ea4286449fa08eaac46d1a313a"
        },
        {
            "m_Id": "ca7c02b55b0d43babdea3caf3f9627a1"
        },
        {
            "m_Id": "5f672da3acfe47a9b4dbb5ae5b453c44"
        },
        {
            "m_Id": "9d76b39a93194d1e8a83c4d96a21e00a"
        },
        {
            "m_Id": "851965b2fef0437e9db64e3ef298405f"
        }
    ],
    "synonyms": [],
    "m_Precision": 0,
    "m_PreviewExpanded": false,
    "m_PreviewMode": 0,
    "m_CustomColors": {
        "m_SerializableColors": []
    },
    "m_TextureType": 0,
    "m_NormalMapSpace": 0
}

{
    "m_SGVersion": 0,
    "m_Type": "UnityEditor.ShaderGraph.DynamicVectorMaterialSlot",
    "m_ObjectId": "e50547b0bffa43fcaf0af0490e634e09",
    "m_Id": 2,
    "m_DisplayName": "Out",
    "m_SlotType": 1,
    "m_Hidden": false,
    "m_ShaderOutputName": "Out",
    "m_StageCapability": 3,
    "m_Value": {
        "x": 0.0,
        "y": 0.0,
        "z": 0.0,
        "w": 0.0
    },
    "m_DefaultValue": {
        "x": 0.0,
        "y": 0.0,
        "z": 0.0,
        "w": 0.0
    }
}

{
    "m_SGVersion": 0,
    "m_Type": "UnityEditor.ShaderGraph.NormalMaterialSlot",
    "m_ObjectId": "e564fa22cb654112ae3f9f30c2c53a17",
    "m_Id": 0,
    "m_DisplayName": "Normal (Tangent Space)",
    "m_SlotType": 0,
    "m_Hidden": false,
    "m_ShaderOutputName": "NormalTS",
    "m_StageCapability": 2,
    "m_Value": {
        "x": 0.0,
        "y": 0.0,
        "z": 0.0
    },
    "m_DefaultValue": {
        "x": 0.0,
        "y": 0.0,
        "z": 0.0
    },
    "m_Labels": [],
    "m_Space": 3
}

{
    "m_SGVersion": 0,
    "m_Type": "UnityEditor.ShaderGraph.Texture2DMaterialSlot",
    "m_ObjectId": "e636f8678ebd4b879c99925ecd31071b",
    "m_Id": 0,
    "m_DisplayName": "Metallic",
    "m_SlotType": 1,
    "m_Hidden": false,
    "m_ShaderOutputName": "Out",
    "m_StageCapability": 3,
    "m_BareResource": false
}

{
    "m_SGVersion": 0,
    "m_Type": "UnityEditor.ShaderGraph.DynamicValueMaterialSlot",
    "m_ObjectId": "e75df82b08bd4117b1ef8f6e1286bc3f",
    "m_Id": 1,
    "m_DisplayName": "B",
    "m_SlotType": 0,
    "m_Hidden": false,
    "m_ShaderOutputName": "B",
    "m_StageCapability": 3,
    "m_Value": {
        "e00": 2.0,
        "e01": 2.0,
        "e02": 2.0,
        "e03": 2.0,
        "e10": 2.0,
        "e11": 2.0,
        "e12": 2.0,
        "e13": 2.0,
        "e20": 2.0,
        "e21": 2.0,
        "e22": 2.0,
        "e23": 2.0,
        "e30": 2.0,
        "e31": 2.0,
        "e32": 2.0,
        "e33": 2.0
    },
    "m_DefaultValue": {
        "e00": 1.0,
        "e01": 0.0,
        "e02": 0.0,
        "e03": 0.0,
        "e10": 0.0,
        "e11": 1.0,
        "e12": 0.0,
        "e13": 0.0,
        "e20": 0.0,
        "e21": 0.0,
        "e22": 1.0,
        "e23": 0.0,
        "e30": 0.0,
        "e31": 0.0,
        "e32": 0.0,
        "e33": 1.0
    }
}

{
    "m_SGVersion": 0,
    "m_Type": "UnityEditor.Rendering.HighDefinition.ShaderGraph.HDTarget",
    "m_ObjectId": "e7645f04ceba45acbbd00641694f2b5e",
    "m_ActiveSubTarget": {
        "m_Id": "2e7215bd16204879b2754bdc2bc21196"
    },
    "m_Datas": [
        {
            "m_Id": "1b43164456fe41d2a83fff8dca51e931"
        },
        {
            "m_Id": "851ce658df4b4025b53c169e95b00db3"
        },
        {
            "m_Id": "83407ca118f54ffc823c85cb931138ba"
        },
        {
            "m_Id": "0fa2c1cc2ec8409ba6340093782e3c76"
        }
    ],
    "m_CustomEditorGUI": ""
}

{
    "m_SGVersion": 0,
    "m_Type": "UnityEditor.ShaderGraph.Vector2MaterialSlot",
    "m_ObjectId": "e79d1e4f450344168162c3bc41444b08",
    "m_Id": 1,
    "m_DisplayName": "In Min Max",
    "m_SlotType": 0,
    "m_Hidden": false,
    "m_ShaderOutputName": "InMinMax",
    "m_StageCapability": 3,
    "m_Value": {
        "x": 0.0,
        "y": 1.0
    },
    "m_DefaultValue": {
        "x": 0.0,
        "y": 0.0
    },
    "m_Labels": []
}

{
    "m_SGVersion": 0,
    "m_Type": "UnityEditor.ShaderGraph.DynamicVectorMaterialSlot",
    "m_ObjectId": "e90cac9c4ef74116add01d6f9850f175",
    "m_Id": 1,
    "m_DisplayName": "Out",
    "m_SlotType": 1,
    "m_Hidden": false,
    "m_ShaderOutputName": "Out",
    "m_StageCapability": 3,
    "m_Value": {
        "x": 0.0,
        "y": 0.0,
        "z": 0.0,
        "w": 0.0
    },
    "m_DefaultValue": {
        "x": 0.0,
        "y": 0.0,
        "z": 0.0,
        "w": 0.0
    }
}

{
    "m_SGVersion": 0,
    "m_Type": "UnityEditor.ShaderGraph.DynamicVectorMaterialSlot",
    "m_ObjectId": "ea75db624f0e482e94966948657a233d",
    "m_Id": 2,
    "m_DisplayName": "Out",
    "m_SlotType": 1,
    "m_Hidden": false,
    "m_ShaderOutputName": "Out",
    "m_StageCapability": 3,
    "m_Value": {
        "x": 0.0,
        "y": 0.0,
        "z": 0.0,
        "w": 0.0
    },
    "m_DefaultValue": {
        "x": 0.0,
        "y": 0.0,
        "z": 0.0,
        "w": 0.0
    }
}

{
    "m_SGVersion": 0,
    "m_Type": "UnityEditor.ShaderGraph.BlockNode",
    "m_ObjectId": "efa68c3706bb41e3af8dc44caaf81587",
    "m_Group": {
        "m_Id": ""
    },
    "m_Name": "SurfaceDescription.Smoothness",
    "m_DrawState": {
        "m_Expanded": true,
        "m_Position": {
            "serializedVersion": "2",
            "x": 0.0,
            "y": 0.0,
            "width": 0.0,
            "height": 0.0
        }
    },
    "m_Slots": [
        {
            "m_Id": "1d83edc02f7949a198b85f8392b0bf1e"
        }
    ],
    "synonyms": [],
    "m_Precision": 0,
    "m_PreviewExpanded": true,
    "m_PreviewMode": 0,
    "m_CustomColors": {
        "m_SerializableColors": []
    },
    "m_SerializedDescriptor": "SurfaceDescription.Smoothness"
}

{
    "m_SGVersion": 0,
    "m_Type": "UnityEditor.ShaderGraph.BlockNode",
    "m_ObjectId": "f144401560d1404da506da8f7f9f8709",
    "m_Group": {
        "m_Id": ""
    },
    "m_Name": "VertexDescription.Tangent",
    "m_DrawState": {
        "m_Expanded": true,
        "m_Position": {
            "serializedVersion": "2",
            "x": 0.0,
            "y": 0.0,
            "width": 0.0,
            "height": 0.0
        }
    },
    "m_Slots": [
        {
            "m_Id": "e058ca0e55ce46a9969e48bc77c8b0f2"
        }
    ],
    "synonyms": [],
    "m_Precision": 0,
    "m_PreviewExpanded": true,
    "m_PreviewMode": 0,
    "m_CustomColors": {
        "m_SerializableColors": []
    },
    "m_SerializedDescriptor": "VertexDescription.Tangent"
}

{
    "m_SGVersion": 0,
    "m_Type": "UnityEditor.ShaderGraph.Vector1MaterialSlot",
    "m_ObjectId": "f619d63920414dc4ba60e2f48ee43a7a",
    "m_Id": 0,
    "m_DisplayName": "Metallic",
    "m_SlotType": 0,
    "m_Hidden": false,
    "m_ShaderOutputName": "Metallic",
    "m_StageCapability": 2,
    "m_Value": 0.0,
    "m_DefaultValue": 0.0,
    "m_Labels": []
}

{
    "m_SGVersion": 0,
    "m_Type": "UnityEditor.ShaderGraph.Vector1MaterialSlot",
    "m_ObjectId": "fcb1a902c14b44e5a1d5f513a8de10f7",
    "m_Id": 2,
    "m_DisplayName": "Cosine Time",
    "m_SlotType": 1,
    "m_Hidden": false,
    "m_ShaderOutputName": "Cosine Time",
    "m_StageCapability": 3,
    "m_Value": 0.0,
    "m_DefaultValue": 0.0,
    "m_Labels": []
}

{
    "m_SGVersion": 0,
    "m_Type": "UnityEditor.ShaderGraph.Vector1MaterialSlot",
    "m_ObjectId": "fd58eb1c9aea466db5f3b642844f57fa",
    "m_Id": 3,
    "m_DisplayName": "B",
    "m_SlotType": 1,
    "m_Hidden": false,
    "m_ShaderOutputName": "B",
    "m_StageCapability": 3,
    "m_Value": 0.0,
    "m_DefaultValue": 0.0,
    "m_Labels": []
}

